%YAML 1.1
%TAG !u! tag:unity3d.com,2011:
--- !u!114 &11400000
MonoBehaviour:
  m_ObjectHideFlags: 0
  m_CorrespondingSourceObject: {fileID: 0}
  m_PrefabInstance: {fileID: 0}
  m_PrefabAsset: {fileID: 0}
  m_GameObject: {fileID: 0}
  m_Enabled: 1
  m_EditorHideFlags: 0
  m_Script: {fileID: 11500000, guid: 8902e72de0365b5409b5d9a3954330cf, type: 3}
  m_Name: StandartContainer
  m_EditorClassIdentifier: 
  obstacleList:
  - theType: 0
    theObstacle:
    - {fileID: 5839905611749597932, guid: 7597bbe39ee24154ab487f6f065701e1, type: 3}
  - theType: 1
    theObstacle:
    - {fileID: 8230866378144956792, guid: a40b6d1326cb1024b95cc4beb8151562, type: 3}
  - theType: 2
    theObstacle:
    - {fileID: 7203172999492707485, guid: 2f7966cf3590a584ca65cd243d7f3bfd, type: 3}
    - {fileID: 5919310907812111549, guid: e778a621782f15c46b3f511717cee237, type: 3}
  - theType: 3
    theObstacle:
    - {fileID: 5013974978913316628, guid: 5b2b02b3736372c45b854be2a5240794, type: 3}
  - theType: 4
    theObstacle:
    - {fileID: 7087507550253055359, guid: 03429bec377b1aa42a7275f9604f9ca2, type: 3}
  - theType: 5
    theObstacle:
    - {fileID: 8198321428537773813, guid: 3411b373b7a8e4c4ab4949d2e415d891, type: 3}
  - theType: 6
    theObstacle:
    - {fileID: 618484105966953331, guid: 55b2c670b50bf8f4cbfa0f6605a81a28, type: 3}
  - theType: 7
    theObstacle:
    - {fileID: 590129054468802032, guid: ba78012643048074c84b477e97500711, type: 3}
  - theType: 8
    theObstacle:
    - {fileID: 5243168038272433072, guid: 35984755d609a3e488a9d4295314cba4, type: 3}
  - theType: 9
    theObstacle:
    - {fileID: 4591054403456512088, guid: 4741844e1bda55c41a3dbb91e4b4fd3b, type: 3}
  - theType: 10
    theObstacle:
    - {fileID: 6412438349304460305, guid: f6d6a553f31c8d94586476fedccf97f2, type: 3}
  - theType: 11
    theObstacle:
    - {fileID: 219116376152156422, guid: ecabf473501408d428228ce959f500cd, type: 3}
  - theType: 12
    theObstacle:
    - {fileID: 5162640116557968108, guid: 748a7a4da80d2b3408ddadc21eee20ef, type: 3}
  - theType: 13
    theObstacle:
    - {fileID: 2518142403651707530, guid: 9ca8be0bbcf980c49a62f6d592c2b461, type: 3}
  collectableList:
  - collectableType: 0
    theCollectable:
    - {fileID: 7822793946727066967, guid: a06c2c160f1f5714aa334c49e57fbfae, type: 3}
  - collectableType: 1
    theCollectable:
    - {fileID: 2006373958332588515, guid: 8afa8f7427e9c4c4fab332566591533e, type: 3}
  - collectableType: 2
    theCollectable:
    - {fileID: 5583366816276501940, guid: 18e563b847cfb4440b1b015685c0c809, type: 3}
  trailList:
  - trailType: 0
    theTrail: {fileID: 1058694722967465377, guid: 883cb6eafe44d5146905738dfdba4139,
      type: 3}
  - trailType: 1
    theTrail: {fileID: 3605617209752321751, guid: 16b4c2c472157c149a926ce325286f41,
      type: 3}
  - trailType: 2
    theTrail: {fileID: 3605617209752321751, guid: f6d4f181e8f12df42b5d86a9a36b5d4b,
      type: 3}
  - trailType: 3
    theTrail: {fileID: 3605617209752321751, guid: 9babae969d54e094585d77beda699901,
      type: 3}
  - trailType: 4
    theTrail: {fileID: 3605617209752321751, guid: df37d07e70a306e4ca74645bfae86a41,
      type: 3}
  - trailType: 5
    theTrail: {fileID: 436879842229690213, guid: a4be3c8e0cbba9e44833fe3718cf27bb,
      type: 3}
