{
    "name": "PlayerControls",
    "maps": [
        {
            "name": "Miner",
            "id": "5b727e81-d04a-42f5-afa8-24393a886d28",
            "actions": [
                {
                    "name": "MinerUp",
                    "type": "Button",
                    "id": "7f274859-5b78-4ce9-9bca-93ccedb4e90a",
                    "expectedControlType": "Button",
                    "processors": "",
                    "interactions": ""
                },
                {
                    "name": "MinerDown",
                    "type": "Button",
                    "id": "28ec0a3d-5c20-4afe-953c-5b72462f4b2c",
                    "expectedControlType": "Button",
                    "processors": "",
                    "interactions": ""
                },
                {
                    "name": "MinerLeft",
                    "type": "Button",
                    "id": "3332df39-de08-47d0-ad08-033b829d79b7",
                    "expectedControlType": "Button",
                    "processors": "",
                    "interactions": ""
                },
                {
                    "name": "MinerRight",
                    "type": "Button",
                    "id": "25418031-c2e4-4987-bb3b-d48bdd96b0e2",
                    "expectedControlType": "Button",
                    "processors": "",
                    "interactions": ""
                },
                {
                    "name": "MinerItem",
                    "type": "Button",
                    "id": "570b2838-3a93-4139-b1b9-db1dac527d42",
                    "expectedControlType": "Button",
                    "processors": "",
                    "interactions": ""
                },
                {
                    "name": "Pause",
                    "type": "Button",
                    "id": "a7bf5180-e2bc-496f-a6e9-9182fee849b6",
                    "expectedControlType": "Button",
                    "processors": "",
                    "interactions": ""
                },
                {
                    "name": "MinerMovement",
                    "type": "PassThrough",
                    "id": "4534dc79-bf63-4bbb-b645-c60bcde32463",
                    "expectedControlType": "Vector2",
                    "processors": "ScaleVector2",
                    "interactions": ""
                },
                {
                    "name": "Touch",
                    "type": "Button",
                    "id": "4fea21b6-033c-413b-891a-607dc6271dca",
                    "expectedControlType": "Button",
                    "processors": "",
                    "interactions": ""
                },
                {
                    "name": "TouchStick",
                    "type": "Value",
                    "id": "07489446-1aeb-4ef2-9deb-2da5c1dea1c6",
                    "expectedControlType": "Vector2",
                    "processors": "",
                    "interactions": ""
                }
            ],
            "bindings": [
                {
                    "name": "",
                    "id": "e6473706-cdbd-4e96-9389-c30f4f198bc1",
                    "path": "<Keyboard>/w",
                    "interactions": "",
                    "processors": "",
                    "groups": "",
                    "action": "MinerUp",
                    "isComposite": false,
                    "isPartOfComposite": false
                },
                {
                    "name": "",
                    "id": "45bc4897-9d11-4ce9-8092-b50440cbdb59",
                    "path": "<Keyboard>/upArrow",
                    "interactions": "",
                    "processors": "",
                    "groups": "",
                    "action": "MinerUp",
                    "isComposite": false,
                    "isPartOfComposite": false
                },
                {
                    "name": "",
                    "id": "58f355ef-7302-44e1-b87b-15ebe3f40057",
                    "path": "<Keyboard>/s",
                    "interactions": "",
                    "processors": "",
                    "groups": "",
                    "action": "MinerDown",
                    "isComposite": false,
                    "isPartOfComposite": false
                },
                {
                    "name": "",
                    "id": "3bdbb9a7-f934-4685-9f53-bfb797088265",
                    "path": "<Keyboard>/downArrow",
                    "interactions": "",
                    "processors": "",
                    "groups": "",
                    "action": "MinerDown",
                    "isComposite": false,
                    "isPartOfComposite": false
                },
                {
                    "name": "",
                    "id": "41cbbc9c-90bf-4f54-941f-5f067ffa5441",
                    "path": "<Keyboard>/a",
                    "interactions": "",
                    "processors": "",
                    "groups": "",
                    "action": "MinerLeft",
                    "isComposite": false,
                    "isPartOfComposite": false
                },
                {
                    "name": "",
                    "id": "8abf4758-00e1-4d7c-941d-d7298f5f92c3",
                    "path": "<Keyboard>/leftArrow",
                    "interactions": "",
                    "processors": "",
                    "groups": "",
                    "action": "MinerLeft",
                    "isComposite": false,
                    "isPartOfComposite": false
                },
                {
                    "name": "",
                    "id": "7207f90b-28d3-4878-afe8-f7d050f1bf01",
                    "path": "<Keyboard>/d",
                    "interactions": "",
                    "processors": "",
                    "groups": "",
                    "action": "MinerRight",
                    "isComposite": false,
                    "isPartOfComposite": false
                },
                {
                    "name": "",
                    "id": "623bb7d9-5354-4f8e-b25a-cc0d346a6e16",
                    "path": "<Keyboard>/rightArrow",
                    "interactions": "",
                    "processors": "",
                    "groups": "",
                    "action": "MinerRight",
                    "isComposite": false,
                    "isPartOfComposite": false
                },
                {
                    "name": "",
                    "id": "3bb2271b-f830-4314-8860-fc236d848a53",
                    "path": "<Keyboard>/space",
                    "interactions": "",
                    "processors": "",
                    "groups": "",
                    "action": "MinerItem",
                    "isComposite": false,
                    "isPartOfComposite": false
                },
                {
                    "name": "",
                    "id": "51dbdedd-0388-4e49-9ed9-9f535d5aee3c",
                    "path": "<Keyboard>/p",
                    "interactions": "",
                    "processors": "",
                    "groups": "",
                    "action": "Pause",
                    "isComposite": false,
                    "isPartOfComposite": false
                },
                {
                    "name": "",
                    "id": "e323e9c2-99fa-446f-bb52-5c686ac5adfa",
                    "path": "<Keyboard>/escape",
                    "interactions": "",
                    "processors": "",
                    "groups": "",
                    "action": "Pause",
                    "isComposite": false,
                    "isPartOfComposite": false
                },
                {
                    "name": "WASD",
                    "id": "ff98953e-6b53-42dd-8200-e998f48383fb",
                    "path": "2DVector",
                    "interactions": "",
                    "processors": "",
                    "groups": "",
                    "action": "MinerMovement",
                    "isComposite": true,
                    "isPartOfComposite": false
                },
                {
                    "name": "up",
                    "id": "3ff4763c-df2f-4286-a081-a77e97dae6ab",
                    "path": "<Keyboard>/w",
                    "interactions": "",
                    "processors": "",
                    "groups": "",
                    "action": "MinerMovement",
                    "isComposite": false,
                    "isPartOfComposite": true
                },
                {
                    "name": "down",
                    "id": "d7a40443-9447-422a-9bc1-bfc2a49be52b",
                    "path": "<Keyboard>/s",
                    "interactions": "",
                    "processors": "",
                    "groups": "",
                    "action": "MinerMovement",
                    "isComposite": false,
                    "isPartOfComposite": true
                },
                {
                    "name": "left",
                    "id": "5ed3a0e6-0670-401a-b0e5-624da919eb18",
                    "path": "<Keyboard>/a",
                    "interactions": "",
                    "processors": "",
                    "groups": "",
                    "action": "MinerMovement",
                    "isComposite": false,
                    "isPartOfComposite": true
                },
                {
                    "name": "right",
                    "id": "a4667798-f747-4e3f-8bac-70745fddd856",
                    "path": "<Keyboard>/d",
                    "interactions": "",
                    "processors": "",
                    "groups": "",
                    "action": "MinerMovement",
                    "isComposite": false,
                    "isPartOfComposite": true
                },
                {
                    "name": "Arrows",
                    "id": "93904a41-7a51-4dcd-9254-8355435bfa16",
                    "path": "2DVector",
                    "interactions": "",
                    "processors": "",
                    "groups": "",
                    "action": "MinerMovement",
                    "isComposite": true,
                    "isPartOfComposite": false
                },
                {
                    "name": "up",
                    "id": "1fb89e52-929f-40f9-b5fd-dc6938450cbd",
                    "path": "<Keyboard>/upArrow",
                    "interactions": "",
                    "processors": "",
                    "groups": "",
                    "action": "MinerMovement",
                    "isComposite": false,
                    "isPartOfComposite": true
                },
                {
                    "name": "down",
                    "id": "c0ec544c-2e64-4831-9891-75bd667a8b0a",
                    "path": "<Keyboard>/downArrow",
                    "interactions": "",
                    "processors": "",
                    "groups": "",
                    "action": "MinerMovement",
                    "isComposite": false,
                    "isPartOfComposite": true
                },
                {
                    "name": "left",
                    "id": "bb855d55-4adb-4090-9192-f094b5d7c989",
                    "path": "<Keyboard>/leftArrow",
                    "interactions": "",
                    "processors": "",
                    "groups": "",
                    "action": "MinerMovement",
                    "isComposite": false,
                    "isPartOfComposite": true
                },
                {
                    "name": "right",
                    "id": "83ebc997-2dfb-42d7-a388-f6c7e2eada35",
                    "path": "<Keyboard>/rightArrow",
                    "interactions": "",
                    "processors": "",
                    "groups": "",
                    "action": "MinerMovement",
                    "isComposite": false,
                    "isPartOfComposite": true
                },
                {
                    "name": "",
                    "id": "90d5fa90-eb69-4c44-aa60-17fe2602b62e",
                    "path": "<Touchscreen>/press",
                    "interactions": "",
                    "processors": "",
                    "groups": "Touch",
                    "action": "Touch",
                    "isComposite": false,
                    "isPartOfComposite": false
                },
                {
                    "name": "",
                    "id": "ff606283-5149-4c24-b0e0-c7320fc368c1",
                    "path": "<Gamepad>/leftStick",
                    "interactions": "",
                    "processors": "StickDeadzone",
                    "groups": "",
                    "action": "TouchStick",
                    "isComposite": false,
                    "isPartOfComposite": false
                },
                {
                    "name": "",
                    "id": "66d90f3c-c8d6-4727-855e-46d1ae251850",
                    "path": "<AndroidJoystick>/stick",
                    "interactions": "",
                    "processors": "StickDeadzone",
                    "groups": "",
                    "action": "TouchStick",
                    "isComposite": false,
                    "isPartOfComposite": false
                }
            ]
        }
    ],
    "controlSchemes": [
        {
            "name": "Touch",
            "bindingGroup": "Touch",
            "devices": [
                {
                    "devicePath": "<Touchscreen>",
                    "isOptional": false,
                    "isOR": false
                }
            ]
        }
    ]
}