%YAML 1.1
%TAG !u! tag:unity3d.com,2011:
--- !u!74 &7400000
AnimationClip:
  m_ObjectHideFlags: 0
  m_CorrespondingSourceObject: {fileID: 0}
  m_PrefabInstance: {fileID: 0}
  m_PrefabAsset: {fileID: 0}
  m_Name: Dying_General
  serializedVersion: 6
  m_Legacy: 0
  m_Compressed: 0
  m_UseHighQualityCurve: 1
  m_RotationCurves:
  - curve:
      serializedVersion: 2
      m_Curve:
      - serializedVersion: 3
        time: 0.00000047683716
        value: {x: -0.7071068, y: 0, z: -0, w: 0.7071068}
        inSlope: {x: 0, y: 0, z: 0, w: 0}
        outSlope: {x: 0, y: 0, z: 0, w: 0}
        tangentMode: 0
        weightedMode: 0
        inWeight: {x: 0.33333334, y: 0.33333334, z: 0.33333334, w: 0.33333334}
        outWeight: {x: 0.33333334, y: 0.33333334, z: 0.33333334, w: 0.33333334}
      - serializedVersion: 3
        time: 1.333334
        value: {x: -0.7071068, y: 0, z: -0, w: 0.7071068}
        inSlope: {x: 0, y: 0, z: 0, w: 0}
        outSlope: {x: 0, y: 0, z: 0, w: 0}
        tangentMode: 0
        weightedMode: 0
        inWeight: {x: 0.33333334, y: 0.33333334, z: 0.33333334, w: 0.33333334}
        outWeight: {x: 0.33333334, y: 0.33333334, z: 0.33333334, w: 0.33333334}
      m_PreInfinity: 2
      m_PostInfinity: 2
      m_RotationOrder: 4
    path: 
  - curve:
      serializedVersion: 2
      m_Curve:
      - serializedVersion: 3
        time: 0.00000047683716
        value: {x: 0, y: -0, z: -0, w: 1}
        inSlope: {x: 0, y: 0, z: 0, w: 0}
        outSlope: {x: 0, y: 0, z: 0, w: 0}
        tangentMode: 0
        weightedMode: 0
        inWeight: {x: 0.33333334, y: 0.33333334, z: 0.33333334, w: 0.33333334}
        outWeight: {x: 0.33333334, y: 0.33333334, z: 0.33333334, w: 0.33333334}
      - serializedVersion: 3
        time: 0.23333359
        value: {x: 0, y: -5.1288687e-12, z: -0, w: 1}
        inSlope: {x: 0, y: 0.000016279133, z: 0, w: 0}
        outSlope: {x: 0, y: 0.000016279133, z: 0, w: 0}
        tangentMode: 0
        weightedMode: 0
        inWeight: {x: 0.33333334, y: 0.33333334, z: 0.33333334, w: 0.33333334}
        outWeight: {x: 0.33333334, y: 0.33333334, z: 0.33333334, w: 0.33333334}
      - serializedVersion: 3
        time: 0.2666669
        value: {x: 0, y: 0.0000010852744, z: -0, w: 1}
        inSlope: {x: 0, y: 10.606606, z: 0, w: -4.3933964}
        outSlope: {x: 0, y: 10.606606, z: 0, w: -4.3933964}
        tangentMode: 0
        weightedMode: 0
        inWeight: {x: 0.33333334, y: 0.33333334, z: 0.33333334, w: 0.33333334}
        outWeight: {x: 0.33333334, y: 0.33333334, z: 0.33333334, w: 0.33333334}
      - serializedVersion: 3
        time: 0.3000002
        value: {x: 0, y: 0.70710635, z: 0, w: 0.7071072}
        inSlope: {x: 0, y: 10.606597, z: 0, w: -4.3934016}
        outSlope: {x: 0, y: 10.606597, z: 0, w: -4.3934016}
        tangentMode: 0
        weightedMode: 0
        inWeight: {x: 0.33333334, y: 0.33333334, z: 0.33333334, w: 0.33333334}
        outWeight: {x: 0.33333334, y: 0.33333334, z: 0.33333334, w: 0.33333334}
      - serializedVersion: 3
        time: 0.3333335
        value: {x: 0, y: 0.7071068, z: 0, w: 0.7071068}
        inSlope: {x: 1.2989168e-15, y: 0.00006616037, z: -1.2989168e-15, w: -0.00006526629}
        outSlope: {x: 1.2989168e-15, y: 0.00006616037, z: -1.2989168e-15, w: -0.00006526629}
        tangentMode: 0
        weightedMode: 0
        inWeight: {x: 0.33333334, y: 0.33333334, z: 0.33333334, w: 0.33333334}
        outWeight: {x: 0.33333334, y: 0.33333334, z: 0.33333334, w: 0.33333334}
      - serializedVersion: 3
        time: 0.36666727
        value: {x: 8.6595606e-17, y: 0.70711076, z: -8.6595606e-17, w: 0.70710284}
        inSlope: {x: 9.184627e-16, y: 4.393402, z: -9.184627e-16, w: -10.60669}
        outSlope: {x: 9.184627e-16, y: 4.393402, z: -9.184627e-16, w: -10.60669}
        tangentMode: 0
        weightedMode: 0
        inWeight: {x: 0.33333334, y: 0.33333334, z: 0.33333334, w: 0.33333334}
        outWeight: {x: 0.33333334, y: 0.33333334, z: 0.33333334, w: 0.33333334}
      - serializedVersion: 3
        time: 0.40000057
        value: {x: 6.1232025e-17, y: 1, z: -6.1232025e-17, w: -0.0000051931643}
        inSlope: {x: -3.8044932e-16, y: 4.393343, z: 3.8044932e-16, w: -10.606552}
        outSlope: {x: -3.8044932e-16, y: 4.393343, z: 3.8044932e-16, w: -10.606552}
        tangentMode: 0
        weightedMode: 0
        inWeight: {x: 0.33333334, y: 0.33333334, z: 0.33333334, w: 0.33333334}
        outWeight: {x: 0.33333334, y: 0.33333334, z: 0.33333334, w: 0.33333334}
      - serializedVersion: 3
        time: 0.43333387
        value: {x: 6.123234e-17, y: 1, z: -6.123234e-17, w: 6.123234e-17}
        inSlope: {x: 6.948321e-22, y: 0, z: -6.948321e-22, w: 0.000011984237}
        outSlope: {x: 6.948321e-22, y: 0, z: -6.948321e-22, w: 0.000011984237}
        tangentMode: 0
        weightedMode: 0
        inWeight: {x: 0.33333334, y: 0.33333334, z: 0.33333334, w: 0.33333334}
        outWeight: {x: 0.33333334, y: 0.33333334, z: 0.33333334, w: 0.33333334}
      - serializedVersion: 3
        time: 0.46666718
        value: {x: 6.123207e-17, y: 1, z: -6.123207e-17, w: -0.000004394216}
        inSlope: {x: -9.18486e-16, y: -4.3934445, z: 9.18486e-16, w: -10.606654}
        outSlope: {x: -9.18486e-16, y: -4.3934445, z: 9.18486e-16, w: -10.606654}
        tangentMode: 0
        weightedMode: 0
        inWeight: {x: 0.33333334, y: 0.33333334, z: 0.33333334, w: 0.33333334}
        outWeight: {x: 0.33333334, y: 0.33333334, z: 0.33333334, w: 0.33333334}
      - serializedVersion: 3
        time: 0.5000005
        value: {x: -0, y: 0.70710397, z: 0, w: -0.70710963}
        inSlope: {x: -9.18482e-16, y: -4.3934016, z: 9.18482e-16, w: -10.606546}
        outSlope: {x: -9.18482e-16, y: -4.3934016, z: 9.18482e-16, w: -10.606546}
        tangentMode: 0
        weightedMode: 0
        inWeight: {x: 0.33333334, y: 0.33333334, z: 0.33333334, w: 0.33333334}
        outWeight: {x: 0.33333334, y: 0.33333334, z: 0.33333334, w: 0.33333334}
      - serializedVersion: 3
        time: 0.5333338
        value: {x: 0, y: 0.7071068, z: -0, w: -0.7071068}
        inSlope: {x: 0, y: 0.000008940704, z: 0, w: 0.000008046634}
        outSlope: {x: 0, y: 0.000008940704, z: 0, w: 0.000008046634}
        tangentMode: 0
        weightedMode: 0
        inWeight: {x: 0.33333334, y: 0.33333334, z: 0.33333334, w: 0.33333334}
        outWeight: {x: 0.33333334, y: 0.33333334, z: 0.33333334, w: 0.33333334}
      - serializedVersion: 3
        time: 0.5666671
        value: {x: -0, y: 0.70710456, z: 0, w: -0.7071091}
        inSlope: {x: 0, y: -10.606661, z: 0, w: -4.3934016}
        outSlope: {x: 0, y: -10.606661, z: 0, w: -4.3934016}
        tangentMode: 0
        weightedMode: 0
        inWeight: {x: 0.33333334, y: 0.33333334, z: 0.33333334, w: 0.33333334}
        outWeight: {x: 0.33333334, y: 0.33333334, z: 0.33333334, w: 0.33333334}
      - serializedVersion: 3
        time: 0.6000004
        value: {x: -0, y: -0.0000031957934, z: 0, w: -1}
        inSlope: {x: 0, y: -10.606579, z: 0, w: -4.393368}
        outSlope: {x: 0, y: -10.606579, z: 0, w: -4.393368}
        tangentMode: 0
        weightedMode: 0
        inWeight: {x: 0.33333334, y: 0.33333334, z: 0.33333334, w: 0.33333334}
        outWeight: {x: 0.33333334, y: 0.33333334, z: 0.33333334, w: 0.33333334}
      - serializedVersion: 3
        time: 0.6333337
        value: {x: -0, y: 1.2246469e-16, z: 0, w: -1}
        inSlope: {x: 0, y: 0.00004793695, z: 0, w: 0}
        outSlope: {x: 0, y: 0.00004793695, z: 0, w: 0}
        tangentMode: 0
        weightedMode: 0
        inWeight: {x: 0.33333334, y: 0.33333334, z: 0.33333334, w: 0.33333334}
        outWeight: {x: 0.33333334, y: 0.33333334, z: 0.33333334, w: 0.33333334}
      - serializedVersion: 3
        time: 0.7666669
        value: {x: 2.1661156e-12, y: 1.2246469e-16, z: 2.6527266e-28, w: -1}
        inSlope: {x: -0.0000072351463, y: 0, z: -8.860498e-22, w: 0}
        outSlope: {x: -0.0000072351463, y: 0, z: -8.860498e-22, w: 0}
        tangentMode: 0
        weightedMode: 0
        inWeight: {x: 0.33333334, y: 0.33333334, z: 0.33333334, w: 0.33333334}
        outWeight: {x: 0.33333334, y: 0.33333334, z: 0.33333334, w: 0.33333334}
      - serializedVersion: 3
        time: 0.8000002
        value: {x: -0.0000004823426, y: 1.2246469e-16, z: -5.906993e-23, w: -1}
        inSlope: {x: -8.05944, y: -2.8768566e-16, z: -9.869966e-16, w: 2.3491304}
        outSlope: {x: -8.05944, y: -2.8768566e-16, z: -9.869966e-16, w: 2.3491304}
        tangentMode: 0
        weightedMode: 0
        inWeight: {x: 0.33333334, y: 0.33333334, z: 0.33333334, w: 0.33333334}
        outWeight: {x: 0.33333334, y: 0.33333334, z: 0.33333334, w: 0.33333334}
      - serializedVersion: 3
        time: 0.83333397
        value: {x: -0.53730315, y: 1.03285384e-16, z: -6.5800656e-17, w: -0.8433892}
        inSlope: {x: -8.05938, y: -2.8768148e-16, z: -9.869893e-16, w: 2.3490973}
        outSlope: {x: -8.05938, y: -2.8768148e-16, z: -9.869893e-16, w: 2.3490973}
        tangentMode: 0
        weightedMode: 0
        inWeight: {x: 0.33333334, y: 0.33333334, z: 0.33333334, w: 0.33333334}
        outWeight: {x: 0.33333334, y: 0.33333334, z: 0.33333334, w: 0.33333334}
      - serializedVersion: 3
        time: 0.8666673
        value: {x: -0.53729963, y: 1.0328566e-16, z: -6.5800226e-17, w: -0.8433914}
        inSlope: {x: 0.00005275016, y: 4.1689943e-21, z: 6.452015e-21, w: -0.00003308061}
        outSlope: {x: 0.00005275016, y: 4.1689943e-21, z: 6.452015e-21, w: -0.00003308061}
        tangentMode: 0
        weightedMode: 0
        inWeight: {x: 0.33333334, y: 0.33333334, z: 0.33333334, w: 0.33333334}
        outWeight: {x: 0.33333334, y: 0.33333334, z: 0.33333334, w: 0.33333334}
      - serializedVersion: 3
        time: 1.333334
        value: {x: -0.53729963, y: 1.0328566e-16, z: -6.5800226e-17, w: -0.8433914}
        inSlope: {x: 0, y: 0, z: 0, w: 0}
        outSlope: {x: 0, y: 0, z: 0, w: 0}
        tangentMode: 0
        weightedMode: 0
        inWeight: {x: 0.33333334, y: 0.33333334, z: 0.33333334, w: 0.33333334}
        outWeight: {x: 0.33333334, y: 0.33333334, z: 0.33333334, w: 0.33333334}
      m_PreInfinity: 2
      m_PostInfinity: 2
      m_RotationOrder: 4
    path: Body
  - curve:
      serializedVersion: 2
      m_Curve:
      - serializedVersion: 3
        time: 0.00000047683716
        value: {x: 8.137325e-17, y: 0.9063078, z: -8.137325e-17, w: 0.42261827}
        inSlope: {x: 0, y: 0, z: 0, w: 0}
        outSlope: {x: 0, y: 0, z: 0, w: 0}
        tangentMode: 0
        weightedMode: 0
        inWeight: {x: 0.33333334, y: 0.33333334, z: 0.33333334, w: 0.33333334}
        outWeight: {x: 0.33333334, y: 0.33333334, z: 0.33333334, w: 0.33333334}
      - serializedVersion: 3
        time: 0.7666669
        value: {x: 2.1131545e-13, y: 0.9063078, z: -4.5307432e-13, w: 0.42261827}
        inSlope: {x: -0.0000007056242, y: 0, z: 0.0000015132159, w: 0}
        outSlope: {x: -0.0000007056242, y: 0, z: 0.0000015132159, w: 0}
        tangentMode: 0
        weightedMode: 0
        inWeight: {x: 0.33333334, y: 0.33333334, z: 0.33333334, w: 0.33333334}
        outWeight: {x: 0.33333334, y: 0.33333334, z: 0.33333334, w: 0.33333334}
      - serializedVersion: 3
        time: 0.8000002
        value: {x: -0.00000004704157, y: 0.9063078, z: 0.00000010088097, w: 0.42261827}
        inSlope: {x: -0.8274365, y: -0.1163044, z: 1.7744433, w: -0.054233544}
        outSlope: {x: -0.8274365, y: -0.1163044, z: 1.7744433, w: -0.054233544}
        tangentMode: 0
        weightedMode: 0
        inWeight: {x: 0.33333334, y: 0.33333334, z: 0.33333334, w: 0.33333334}
        outWeight: {x: 0.33333334, y: 0.33333334, z: 0.33333334, w: 0.33333334}
      - serializedVersion: 3
        time: 0.83333397
        value: {x: -0.05516317, y: 0.8985541, z: 0.1182978, w: 0.41900265}
        inSlope: {x: -0.82742953, y: -0.11630261, z: 1.7744282, w: -0.05423265}
        outSlope: {x: -0.82742953, y: -0.11630261, z: 1.7744282, w: -0.05423265}
        tangentMode: 0
        weightedMode: 0
        inWeight: {x: 0.33333334, y: 0.33333334, z: 0.33333334, w: 0.33333334}
        outWeight: {x: 0.33333334, y: 0.33333334, z: 0.33333334, w: 0.33333334}
      - serializedVersion: 3
        time: 0.8666673
        value: {x: -0.055162754, y: 0.8985542, z: 0.11829691, w: 0.4190027}
        inSlope: {x: 0.0000062584936, y: 0.000001788141, z: -0.000013411058, w: 0.0000008940705}
        outSlope: {x: 0.0000062584936, y: 0.000001788141, z: -0.000013411058, w: 0.0000008940705}
        tangentMode: 0
        weightedMode: 0
        inWeight: {x: 0.33333334, y: 0.33333334, z: 0.33333334, w: 0.33333334}
        outWeight: {x: 0.33333334, y: 0.33333334, z: 0.33333334, w: 0.33333334}
      - serializedVersion: 3
        time: 1.333334
        value: {x: -0.055162754, y: 0.8985542, z: 0.11829691, w: 0.4190027}
        inSlope: {x: 0, y: 0, z: 0, w: 0}
        outSlope: {x: 0, y: 0, z: 0, w: 0}
        tangentMode: 0
        weightedMode: 0
        inWeight: {x: 0.33333334, y: 0.33333334, z: 0.33333334, w: 0.33333334}
        outWeight: {x: 0.33333334, y: 0.33333334, z: 0.33333334, w: 0.33333334}
      m_PreInfinity: 2
      m_PostInfinity: 2
      m_RotationOrder: 4
    path: Body/Arm_L
  - curve:
      serializedVersion: 2
      m_Curve:
      - serializedVersion: 3
        time: 0.00000047683716
        value: {x: 0, y: -0, z: -0, w: 1}
        inSlope: {x: 0, y: 0, z: 0, w: 0}
        outSlope: {x: 0, y: 0, z: 0, w: 0}
        tangentMode: 0
        weightedMode: 0
        inWeight: {x: 0.33333334, y: 0.33333334, z: 0.33333334, w: 0.33333334}
        outWeight: {x: 0.33333334, y: 0.33333334, z: 0.33333334, w: 0.33333334}
      - serializedVersion: 3
        time: 1.333334
        value: {x: 0, y: -0, z: -0, w: 1}
        inSlope: {x: 0, y: 0, z: 0, w: 0}
        outSlope: {x: 0, y: 0, z: 0, w: 0}
        tangentMode: 0
        weightedMode: 0
        inWeight: {x: 0.33333334, y: 0.33333334, z: 0.33333334, w: 0.33333334}
        outWeight: {x: 0.33333334, y: 0.33333334, z: 0.33333334, w: 0.33333334}
      m_PreInfinity: 2
      m_PostInfinity: 2
      m_RotationOrder: 4
    path: Body/Head
  - curve:
      serializedVersion: 2
      m_Curve:
      - serializedVersion: 3
        time: 0.00000047683716
        value: {x: 2.961744e-17, y: 0.9063078, z: -2.961744e-17, w: -0.42261827}
        inSlope: {x: 0, y: 0, z: 0, w: 0}
        outSlope: {x: 0, y: 0, z: 0, w: 0}
        tangentMode: 0
        weightedMode: 0
        inWeight: {x: 0.33333334, y: 0.33333334, z: 0.33333334, w: 0.33333334}
        outWeight: {x: 0.33333334, y: 0.33333334, z: 0.33333334, w: 0.33333334}
      - serializedVersion: 3
        time: 0.7666669
        value: {x: -5.231774e-13, y: 0.9063078, z: -8.1960323e-13, w: -0.42261827}
        inSlope: {x: 0.000001747821, y: 0, z: 0.0000027379047, w: 0}
        outSlope: {x: 0.000001747821, y: 0, z: 0.0000027379047, w: 0}
        tangentMode: 0
        weightedMode: 0
        inWeight: {x: 0.33333334, y: 0.33333334, z: 0.33333334, w: 0.33333334}
        outWeight: {x: 0.33333334, y: 0.33333334, z: 0.33333334, w: 0.33333334}
      - serializedVersion: 3
        time: 0.8000002
        value: {x: 0.000000116521285, y: 0.9063078, z: 0.0000001825268, w: -0.42261827}
        inSlope: {x: 1.63767, y: 0.38525125, z: 3.2462127, w: 2.2966068}
        outSlope: {x: 1.63767, y: 0.38525125, z: 3.2462127, w: 2.2966068}
        tangentMode: 0
        weightedMode: 0
        inWeight: {x: 0.33333334, y: 0.33333334, z: 0.33333334, w: 0.33333334}
        outWeight: {x: 0.33333334, y: 0.33333334, z: 0.33333334, w: 0.33333334}
      - serializedVersion: 3
        time: 0.83333397
        value: {x: 0.10917946, y: 0.9319916, z: 0.21641707, w: -0.2695091}
        inSlope: {x: 1.6376597, y: 0.38525215, z: 3.246186, w: 2.2965863}
        outSlope: {x: 1.6376597, y: 0.38525215, z: 3.246186, w: 2.2965863}
        tangentMode: 0
        weightedMode: 0
        inWeight: {x: 0.33333334, y: 0.33333334, z: 0.33333334, w: 0.33333334}
        outWeight: {x: 0.33333334, y: 0.33333334, z: 0.33333334, w: 0.33333334}
      - serializedVersion: 3
        time: 0.8666673
        value: {x: 0.109178886, y: 0.93199164, z: 0.21641546, w: -0.26951048}
        inSlope: {x: -0.000008605429, y: 0.0000008940705, z: -0.000024139905, w: -0.000020563622}
        outSlope: {x: -0.000008605429, y: 0.0000008940705, z: -0.000024139905, w: -0.000020563622}
        tangentMode: 0
        weightedMode: 0
        inWeight: {x: 0.33333334, y: 0.33333334, z: 0.33333334, w: 0.33333334}
        outWeight: {x: 0.33333334, y: 0.33333334, z: 0.33333334, w: 0.33333334}
      - serializedVersion: 3
        time: 1.333334
        value: {x: 0.10917901, y: 0.93199164, z: 0.2164155, w: -0.26951045}
        inSlope: {x: 0, y: 0, z: 0, w: 0}
        outSlope: {x: 0, y: 0, z: 0, w: 0}
        tangentMode: 0
        weightedMode: 0
        inWeight: {x: 0.33333334, y: 0.33333334, z: 0.33333334, w: 0.33333334}
        outWeight: {x: 0.33333334, y: 0.33333334, z: 0.33333334, w: 0.33333334}
      m_PreInfinity: 2
      m_PostInfinity: 2
      m_RotationOrder: 4
    path: Body/Arm_R
  - curve:
      serializedVersion: 2
      m_Curve:
      - serializedVersion: 3
        time: 0.00000047683716
        value: {x: 0.49999994, y: 0.50000006, z: 0.5, w: 0.5}
        inSlope: {x: 0, y: 0, z: 0, w: 0}
        outSlope: {x: 0, y: 0, z: 0, w: 0}
        tangentMode: 0
        weightedMode: 0
        inWeight: {x: 0.33333334, y: 0.33333334, z: 0.33333334, w: 0.33333334}
        outWeight: {x: 0.33333334, y: 0.33333334, z: 0.33333334, w: 0.33333334}
      - serializedVersion: 3
        time: 0.7666669
        value: {x: 0.49999994, y: 0.50000006, z: 0.5, w: 0.5}
        inSlope: {x: 0.0000026822115, y: -0.0000013411058, z: -0.0000008940705, w: 0.000001788141}
        outSlope: {x: 0.0000026822115, y: -0.0000013411058, z: -0.0000008940705, w: 0.000001788141}
        tangentMode: 0
        weightedMode: 0
        inWeight: {x: 0.33333334, y: 0.33333334, z: 0.33333334, w: 0.33333334}
        outWeight: {x: 0.33333334, y: 0.33333334, z: 0.33333334, w: 0.33333334}
      - serializedVersion: 3
        time: 0.8000002
        value: {x: 0.5000001, y: 0.49999997, z: 0.49999994, w: 0.5000001}
        inSlope: {x: 1.0387074, y: -2.0189962, z: -0.6195297, w: 1.1433872}
        outSlope: {x: 1.0387074, y: -2.0189962, z: -0.6195297, w: 1.1433872}
        tangentMode: 0
        weightedMode: 0
        inWeight: {x: 0.33333334, y: 0.33333334, z: 0.33333334, w: 0.33333334}
        outWeight: {x: 0.33333334, y: 0.33333334, z: 0.33333334, w: 0.33333334}
      - serializedVersion: 3
        time: 0.83333397
        value: {x: 0.569248, y: 0.36539853, z: 0.45869747, w: 0.57622683}
        inSlope: {x: 1.0386983, y: -2.0189786, z: -0.6195239, w: 1.1433755}
        outSlope: {x: 1.0386983, y: -2.0189786, z: -0.6195239, w: 1.1433755}
        tangentMode: 0
        weightedMode: 0
        inWeight: {x: 0.33333334, y: 0.33333334, z: 0.33333334, w: 0.33333334}
        outWeight: {x: 0.33333334, y: 0.33333334, z: 0.33333334, w: 0.33333334}
      - serializedVersion: 3
        time: 0.8666673
        value: {x: 0.5692476, y: 0.3653996, z: 0.4586978, w: 0.5762262}
        inSlope: {x: -0.0000062584936, y: 0.000016093269, z: 0.0000049173877, w: -0.0000098347755}
        outSlope: {x: -0.0000062584936, y: 0.000016093269, z: 0.0000049173877, w: -0.0000098347755}
        tangentMode: 0
        weightedMode: 0
        inWeight: {x: 0.33333334, y: 0.33333334, z: 0.33333334, w: 0.33333334}
        outWeight: {x: 0.33333334, y: 0.33333334, z: 0.33333334, w: 0.33333334}
      - serializedVersion: 3
        time: 1.333334
        value: {x: 0.5692474, y: 0.3653995, z: 0.4586978, w: 0.5762265}
        inSlope: {x: 0, y: 0, z: 0, w: 0}
        outSlope: {x: 0, y: 0, z: 0, w: 0}
        tangentMode: 0
        weightedMode: 0
        inWeight: {x: 0.33333334, y: 0.33333334, z: 0.33333334, w: 0.33333334}
        outWeight: {x: 0.33333334, y: 0.33333334, z: 0.33333334, w: 0.33333334}
      m_PreInfinity: 2
      m_PostInfinity: 2
      m_RotationOrder: 4
    path: Body/Arm_R/Pickaxe
  - curve:
      serializedVersion: 2
      m_Curve:
      - serializedVersion: 3
        time: 0.00000047683716
        value: {x: 0, y: -0.34202015, z: -0, w: 0.9396926}
        inSlope: {x: 0, y: 0, z: 0, w: 0}
        outSlope: {x: 0, y: 0, z: 0, w: 0}
        tangentMode: 0
        weightedMode: 0
        inWeight: {x: 0.33333334, y: 0.33333334, z: 0.33333334, w: 0.33333334}
        outWeight: {x: 0.33333334, y: 0.33333334, z: 0.33333334, w: 0.33333334}
      - serializedVersion: 3
        time: 0.23333359
        value: {x: 0, y: -0.34202015, z: -0, w: 0.9396926}
        inSlope: {x: 0, y: 0.000015646234, z: 0, w: 0.000005364423}
        outSlope: {x: 0, y: 0.000015646234, z: 0, w: 0.000005364423}
        tangentMode: 0
        weightedMode: 0
        inWeight: {x: 0.33333334, y: 0.33333334, z: 0.33333334, w: 0.33333334}
        outWeight: {x: 0.33333334, y: 0.33333334, z: 0.33333334, w: 0.33333334}
      - serializedVersion: 3
        time: 0.2666669
        value: {x: 0, y: -0.3420191, z: -0, w: 0.939693}
        inSlope: {x: 0, y: 11.469597, z: 0, w: -0.50077695}
        outSlope: {x: 0, y: 11.469597, z: 0, w: -0.50077695}
        tangentMode: 0
        weightedMode: 0
        inWeight: {x: 0.33333334, y: 0.33333334, z: 0.33333334, w: 0.33333334}
        outWeight: {x: 0.33333334, y: 0.33333334, z: 0.33333334, w: 0.33333334}
      - serializedVersion: 3
        time: 0.3000002
        value: {x: 0, y: 0.42261896, z: -0, w: 0.9063075}
        inSlope: {x: 0, y: 11.469572, z: 0, w: -0.50077784}
        outSlope: {x: 0, y: 11.469572, z: 0, w: -0.50077784}
        tangentMode: 0
        weightedMode: 0
        inWeight: {x: 0.33333334, y: 0.33333334, z: 0.33333334, w: 0.33333334}
        outWeight: {x: 0.33333334, y: 0.33333334, z: 0.33333334, w: 0.33333334}
      - serializedVersion: 3
        time: 0.3333335
        value: {x: 0, y: 0.42261833, z: -0, w: 0.9063078}
        inSlope: {x: 0, y: 0.00006616014, z: 0, w: -0.00003129196}
        outSlope: {x: 0, y: 0.00006616014, z: 0, w: -0.00003129196}
        tangentMode: 0
        weightedMode: 0
        inWeight: {x: 0.33333334, y: 0.33333334, z: 0.33333334, w: 0.33333334}
        outWeight: {x: 0.33333334, y: 0.33333334, z: 0.33333334, w: 0.33333334}
      - serializedVersion: 3
        time: 0.36666727
        value: {x: 0, y: 0.42262337, z: -0, w: 0.90630543}
        inSlope: {x: 1.1772323e-15, y: 7.756148, z: -1.1772323e-15, w: -8.4643955}
        outSlope: {x: 1.1772323e-15, y: 7.756148, z: -1.1772323e-15, w: -8.4643955}
        tangentMode: 0
        weightedMode: 0
        inWeight: {x: 0.33333334, y: 0.33333334, z: 0.33333334, w: 0.33333334}
        outWeight: {x: 0.33333334, y: 0.33333334, z: 0.33333334, w: 0.33333334}
      - serializedVersion: 3
        time: 0.40000057
        value: {x: 7.848208e-17, y: 0.9396944, z: -7.848208e-17, w: 0.34201527}
        inSlope: {x: 1.1772352e-15, y: 7.756046, z: -1.1772352e-15, w: -8.464287}
        outSlope: {x: 1.1772352e-15, y: 7.756046, z: -1.1772352e-15, w: -8.464287}
        tangentMode: 0
        weightedMode: 0
        inWeight: {x: 0.33333334, y: 0.33333334, z: 0.33333334, w: 0.33333334}
        outWeight: {x: 0.33333334, y: 0.33333334, z: 0.33333334, w: 0.33333334}
      - serializedVersion: 3
        time: 0.43333387
        value: {x: 7.8482274e-17, y: 0.9396926, z: -7.8482274e-17, w: 0.34202015}
        inSlope: {x: 4.9630897e-22, y: -0.0000035762823, z: -4.9630897e-22, w: 0.00001162292}
        outSlope: {x: 4.9630897e-22, y: -0.0000035762823, z: -4.9630897e-22, w: 0.00001162292}
        tangentMode: 0
        weightedMode: 0
        inWeight: {x: 0.33333334, y: 0.33333334, z: 0.33333334, w: 0.33333334}
        outWeight: {x: 0.33333334, y: 0.33333334, z: 0.33333334, w: 0.33333334}
      - serializedVersion: 3
        time: 0.46666718
        value: {x: 7.8482116e-17, y: 0.93969417, z: -7.8482116e-17, w: 0.34201604}
        inSlope: {x: -7.3297806e-16, y: -0.5007984, z: 7.3297806e-16, w: -11.469642}
        outSlope: {x: -7.3297806e-16, y: -0.5007984, z: 7.3297806e-16, w: -11.469642}
        tangentMode: 0
        weightedMode: 0
        inWeight: {x: 0.33333334, y: 0.33333334, z: 0.33333334, w: 0.33333334}
        outWeight: {x: 0.33333334, y: 0.33333334, z: 0.33333334, w: 0.33333334}
      - serializedVersion: 3
        time: 0.5000005
        value: {x: 2.9617116e-17, y: 0.9063061, z: -2.9617116e-17, w: -0.42262188}
        inSlope: {x: -7.329708e-16, y: -0.5007957, z: 7.329708e-16, w: -11.469525}
        outSlope: {x: -7.329708e-16, y: -0.5007957, z: 7.329708e-16, w: -11.469525}
        tangentMode: 0
        weightedMode: 0
        inWeight: {x: 0.33333334, y: 0.33333334, z: 0.33333334, w: 0.33333334}
        outWeight: {x: 0.33333334, y: 0.33333334, z: 0.33333334, w: 0.33333334}
      - serializedVersion: 3
        time: 0.5333338
        value: {x: 2.961744e-17, y: 0.9063078, z: -2.961744e-17, w: -0.42261827}
        inSlope: {x: 9.926175e-22, y: 0.0000053644235, z: -9.926175e-22, w: 0.000010728847}
        outSlope: {x: 9.926175e-22, y: 0.0000053644235, z: -9.926175e-22, w: 0.000010728847}
        tangentMode: 0
        weightedMode: 0
        inWeight: {x: 0.33333334, y: 0.33333334, z: 0.33333334, w: 0.33333334}
        outWeight: {x: 0.33333334, y: 0.33333334, z: 0.33333334, w: 0.33333334}
      - serializedVersion: 3
        time: 0.5666671
        value: {x: 2.9617182e-17, y: 0.90630645, z: -2.9617182e-17, w: -0.42262116}
        inSlope: {x: -4.44262e-16, y: -8.464368, z: 4.44262e-16, w: -7.7561393}
        outSlope: {x: -4.44262e-16, y: -8.464368, z: 4.44262e-16, w: -7.7561393}
        tangentMode: 0
        weightedMode: 0
        inWeight: {x: 0.33333334, y: 0.33333334, z: 0.33333334, w: 0.33333334}
        outWeight: {x: 0.33333334, y: 0.33333334, z: 0.33333334, w: 0.33333334}
      - serializedVersion: 3
        time: 0.6000004
        value: {x: -0, y: 0.34201717, z: 0, w: -0.93969375}
        inSlope: {x: -4.4425814e-16, y: -8.464302, z: 4.4425814e-16, w: -7.7560787}
        outSlope: {x: -4.4425814e-16, y: -8.464302, z: 4.4425814e-16, w: -7.7560787}
        tangentMode: 0
        weightedMode: 0
        inWeight: {x: 0.33333334, y: 0.33333334, z: 0.33333334, w: 0.33333334}
        outWeight: {x: 0.33333334, y: 0.33333334, z: 0.33333334, w: 0.33333334}
      - serializedVersion: 3
        time: 0.6333337
        value: {x: -0, y: 0.34202015, z: 0, w: -0.9396926}
        inSlope: {x: 0, y: 0.000044703527, z: 0, w: 0.00001698734}
        outSlope: {x: 0, y: 0.000044703527, z: 0, w: 0.00001698734}
        tangentMode: 0
        weightedMode: 0
        inWeight: {x: 0.33333334, y: 0.33333334, z: 0.33333334, w: 0.33333334}
        outWeight: {x: 0.33333334, y: 0.33333334, z: 0.33333334, w: 0.33333334}
      - serializedVersion: 3
        time: 0.7666669
        value: {x: 2.818361e-12, y: 0.34202015, z: 1.0257995e-12, w: -0.9396926}
        inSlope: {x: -0.000009413743, y: 0, z: -0.000003426322, w: 0}
        outSlope: {x: -0.000009413743, y: 0, z: -0.000003426322, w: 0}
        tangentMode: 0
        weightedMode: 0
        inWeight: {x: 0.33333334, y: 0.33333334, z: 0.33333334, w: 0.33333334}
        outWeight: {x: 0.33333334, y: 0.33333334, z: 0.33333334, w: 0.33333334}
      - serializedVersion: 3
        time: 0.8000002
        value: {x: -0.0000006275822, y: 0.34202015, z: -0.00000022842126, w: -0.9396926}
        inSlope: {x: -10.6065235, y: -5.1302595, z: 0.00002542213, w: 3.4888046}
        outSlope: {x: -10.6065235, y: -5.1302595, z: 0.00002542213, w: 3.4888046}
        tangentMode: 0
        weightedMode: 0
        inWeight: {x: 0.33333334, y: 0.33333334, z: 0.33333334, w: 0.33333334}
        outWeight: {x: 0.33333334, y: 0.33333334, z: 0.33333334, w: 0.33333334}
      - serializedVersion: 3
        time: 0.83333397
        value: {x: -0.707111, y: -0.0000016948152, z: 0.0000016948355, w: -0.70710254}
        inSlope: {x: -10.606451, y: -5.1302342, z: 0.00000342591, w: 3.4887402}
        outSlope: {x: -10.606451, y: -5.1302342, z: 0.00000342591, w: 3.4887402}
        tangentMode: 0
        weightedMode: 0
        inWeight: {x: 0.33333334, y: 0.33333334, z: 0.33333334, w: 0.33333334}
        outWeight: {x: 0.33333334, y: 0.33333334, z: 0.33333334, w: 0.33333334}
      - serializedVersion: 3
        time: 0.8666673
        value: {x: -0.7071068, y: 8.659561e-17, z: -8.659561e-17, w: -0.7071068}
        inSlope: {x: 0.000062584935, y: 0.000025422252, z: -0.000025422558, w: -0.000064373075}
        outSlope: {x: 0.000062584935, y: 0.000025422252, z: -0.000025422558, w: -0.000064373075}
        tangentMode: 0
        weightedMode: 0
        inWeight: {x: 0.33333334, y: 0.33333334, z: 0.33333334, w: 0.33333334}
        outWeight: {x: 0.33333334, y: 0.33333334, z: 0.33333334, w: 0.33333334}
      - serializedVersion: 3
        time: 1.333334
        value: {x: -0.7071068, y: 8.659561e-17, z: -8.659561e-17, w: -0.7071068}
        inSlope: {x: 0, y: 0, z: 0, w: 0}
        outSlope: {x: 0, y: 0, z: 0, w: 0}
        tangentMode: 0
        weightedMode: 0
        inWeight: {x: 0.33333334, y: 0.33333334, z: 0.33333334, w: 0.33333334}
        outWeight: {x: 0.33333334, y: 0.33333334, z: 0.33333334, w: 0.33333334}
      m_PreInfinity: 2
      m_PostInfinity: 2
      m_RotationOrder: 4
    path: Leg_R
  - curve:
      serializedVersion: 2
      m_Curve:
      - serializedVersion: 3
        time: 0.00000047683716
        value: {x: 0, y: 0.34202015, z: -0, w: 0.9396926}
        inSlope: {x: 0, y: 0, z: 0, w: 0}
        outSlope: {x: 0, y: 0, z: 0, w: 0}
        tangentMode: 0
        weightedMode: 0
        inWeight: {x: 0.33333334, y: 0.33333334, z: 0.33333334, w: 0.33333334}
        outWeight: {x: 0.33333334, y: 0.33333334, z: 0.33333334, w: 0.33333334}
      - serializedVersion: 3
        time: 0.23333359
        value: {x: 0, y: 0.34202015, z: -0, w: 0.9396926}
        inSlope: {x: 0, y: 0.000015199199, z: 0, w: -0.000005364423}
        outSlope: {x: 0, y: 0.000015199199, z: 0, w: -0.000005364423}
        tangentMode: 0
        weightedMode: 0
        inWeight: {x: 0.33333334, y: 0.33333334, z: 0.33333334, w: 0.33333334}
        outWeight: {x: 0.33333334, y: 0.33333334, z: 0.33333334, w: 0.33333334}
      - serializedVersion: 3
        time: 0.2666669
        value: {x: 0, y: 0.34202117, z: -0, w: 0.93969226}
        inSlope: {x: 1.2205997e-15, y: 8.464329, z: -1.2205997e-15, w: -7.756133}
        outSlope: {x: 1.2205997e-15, y: 8.464329, z: -1.2205997e-15, w: -7.756133}
        tangentMode: 0
        weightedMode: 0
        inWeight: {x: 0.33333334, y: 0.33333334, z: 0.33333334, w: 0.33333334}
        outWeight: {x: 0.33333334, y: 0.33333334, z: 0.33333334, w: 0.33333334}
      - serializedVersion: 3
        time: 0.3000002
        value: {x: 8.137324e-17, y: 0.9063082, z: -8.137324e-17, w: 0.42261755}
        inSlope: {x: 1.2205999e-15, y: 8.464308, z: -1.2205999e-15, w: -7.756117}
        outSlope: {x: 1.2205999e-15, y: 8.464308, z: -1.2205999e-15, w: -7.756117}
        tangentMode: 0
        weightedMode: 0
        inWeight: {x: 0.33333334, y: 0.33333334, z: 0.33333334, w: 0.33333334}
        outWeight: {x: 0.33333334, y: 0.33333334, z: 0.33333334, w: 0.33333334}
      - serializedVersion: 3
        time: 0.3333335
        value: {x: 8.137325e-17, y: 0.9063078, z: -8.137325e-17, w: 0.42261827}
        inSlope: {x: -2.2829852e-21, y: 0.000029503828, z: 2.2829852e-21, w: -0.00006526607}
        outSlope: {x: -2.2829852e-21, y: 0.000029503828, z: 2.2829852e-21, w: -0.00006526607}
        tangentMode: 0
        weightedMode: 0
        inWeight: {x: 0.33333334, y: 0.33333334, z: 0.33333334, w: 0.33333334}
        outWeight: {x: 0.33333334, y: 0.33333334, z: 0.33333334, w: 0.33333334}
      - serializedVersion: 3
        time: 0.36666727
        value: {x: 8.1373085e-17, y: 0.90631014, z: -8.1373085e-17, w: 0.4226132}
        inSlope: {x: -6.7165223e-16, y: 0.50074655, z: 6.7165223e-16, w: -11.469661}
        outSlope: {x: -6.7165223e-16, y: 0.50074655, z: 6.7165223e-16, w: -11.469661}
        tangentMode: 0
        weightedMode: 0
        inWeight: {x: 0.33333334, y: 0.33333334, z: 0.33333334, w: 0.33333334}
        outWeight: {x: 0.33333334, y: 0.33333334, z: 0.33333334, w: 0.33333334}
      - serializedVersion: 3
        time: 0.40000057
        value: {x: 3.659648e-17, y: 0.9396909, z: -3.659648e-17, w: -0.34202504}
        inSlope: {x: -6.7164366e-16, y: 0.5007376, z: 6.7164366e-16, w: -11.469511}
        outSlope: {x: -6.7164366e-16, y: 0.5007376, z: 6.7164366e-16, w: -11.469511}
        tangentMode: 0
        weightedMode: 0
        inWeight: {x: 0.33333334, y: 0.33333334, z: 0.33333334, w: 0.33333334}
        outWeight: {x: 0.33333334, y: 0.33333334, z: 0.33333334, w: 0.33333334}
      - serializedVersion: 3
        time: 0.43333387
        value: {x: 3.6596886e-17, y: 0.9396926, z: -3.6596886e-17, w: -0.34202015}
        inSlope: {x: 8.933559e-22, y: 0.0000035762823, z: -8.933559e-22, w: 0.00001162292}
        outSlope: {x: 8.933559e-22, y: 0.0000035762823, z: -8.933559e-22, w: 0.00001162292}
        tangentMode: 0
        weightedMode: 0
        inWeight: {x: 0.33333334, y: 0.33333334, z: 0.33333334, w: 0.33333334}
        outWeight: {x: 0.33333334, y: 0.33333334, z: 0.33333334, w: 0.33333334}
      - serializedVersion: 3
        time: 0.46666718
        value: {x: 3.6596538e-17, y: 0.9396911, z: -3.6596538e-17, w: -0.34202427}
        inSlope: {x: -5.489538e-16, y: -7.7561774, z: 5.489538e-16, w: -8.464349}
        outSlope: {x: -5.489538e-16, y: -7.7561774, z: 5.489538e-16, w: -8.464349}
        tangentMode: 0
        weightedMode: 0
        inWeight: {x: 0.33333334, y: 0.33333334, z: 0.33333334, w: 0.33333334}
        outWeight: {x: 0.33333334, y: 0.33333334, z: 0.33333334, w: 0.33333334}
      - serializedVersion: 3
        time: 0.5000005
        value: {x: -0, y: 0.42261463, z: 0, w: -0.9063095}
        inSlope: {x: -5.489486e-16, y: -7.7561007, z: 5.489486e-16, w: -8.464262}
        outSlope: {x: -5.489486e-16, y: -7.7561007, z: 5.489486e-16, w: -8.464262}
        tangentMode: 0
        weightedMode: 0
        inWeight: {x: 0.33333334, y: 0.33333334, z: 0.33333334, w: 0.33333334}
        outWeight: {x: 0.33333334, y: 0.33333334, z: 0.33333334, w: 0.33333334}
      - serializedVersion: 3
        time: 0.5333338
        value: {x: -0, y: 0.42261827, z: 0, w: -0.9063078}
        inSlope: {x: 0, y: 0.000011175882, z: 0, w: 0.0000053644235}
        outSlope: {x: 0, y: 0.000011175882, z: 0, w: 0.0000053644235}
        tangentMode: 0
        weightedMode: 0
        inWeight: {x: 0.33333334, y: 0.33333334, z: 0.33333334, w: 0.33333334}
        outWeight: {x: 0.33333334, y: 0.33333334, z: 0.33333334, w: 0.33333334}
      - serializedVersion: 3
        time: 0.5666671
        value: {x: -0, y: 0.42261538, z: 0, w: -0.9063091}
        inSlope: {x: 0, y: -11.469632, z: 0, w: -0.5007564}
        outSlope: {x: 0, y: -11.469632, z: 0, w: -0.5007564}
        tangentMode: 0
        weightedMode: 0
        inWeight: {x: 0.33333334, y: 0.33333334, z: 0.33333334, w: 0.33333334}
        outWeight: {x: 0.33333334, y: 0.33333334, z: 0.33333334, w: 0.33333334}
      - serializedVersion: 3
        time: 0.6000004
        value: {x: -0, y: -0.34202313, z: 0, w: -0.93969154}
        inSlope: {x: 0, y: -11.469544, z: 0, w: -0.5007528}
        outSlope: {x: 0, y: -11.469544, z: 0, w: -0.5007528}
        tangentMode: 0
        weightedMode: 0
        inWeight: {x: 0.33333334, y: 0.33333334, z: 0.33333334, w: 0.33333334}
        outWeight: {x: 0.33333334, y: 0.33333334, z: 0.33333334, w: 0.33333334}
      - serializedVersion: 3
        time: 0.6333337
        value: {x: -0, y: -0.34202015, z: 0, w: -0.9396926}
        inSlope: {x: 0, y: 0.000044703527, z: 0, w: -0.000016093269}
        outSlope: {x: 0, y: 0.000044703527, z: 0, w: -0.000016093269}
        tangentMode: 0
        weightedMode: 0
        inWeight: {x: 0.33333334, y: 0.33333334, z: 0.33333334, w: 0.33333334}
        outWeight: {x: 0.33333334, y: 0.33333334, z: 0.33333334, w: 0.33333334}
      - serializedVersion: 3
        time: 0.7666669
        value: {x: 2.818361e-12, y: -0.34202015, z: -1.0257995e-12, w: -0.9396926}
        inSlope: {x: -0.000009413743, y: 0, z: 0.000003426322, w: 0}
        outSlope: {x: -0.000009413743, y: 0, z: 0.000003426322, w: 0}
        tangentMode: 0
        weightedMode: 0
        inWeight: {x: 0.33333334, y: 0.33333334, z: 0.33333334, w: 0.33333334}
        outWeight: {x: 0.33333334, y: 0.33333334, z: 0.33333334, w: 0.33333334}
      - serializedVersion: 3
        time: 0.8000002
        value: {x: -0.0000006275822, y: -0.34202015, z: 0.00000022842126, w: -0.9396926}
        inSlope: {x: -10.6065235, y: 5.1302595, z: -0.00002542213, w: 3.4888046}
        outSlope: {x: -10.6065235, y: 5.1302595, z: -0.00002542213, w: 3.4888046}
        tangentMode: 0
        weightedMode: 0
        inWeight: {x: 0.33333334, y: 0.33333334, z: 0.33333334, w: 0.33333334}
        outWeight: {x: 0.33333334, y: 0.33333334, z: 0.33333334, w: 0.33333334}
      - serializedVersion: 3
        time: 0.83333397
        value: {x: -0.707111, y: 0.0000016948152, z: -0.0000016948355, w: -0.70710254}
        inSlope: {x: -10.606451, y: 5.1302342, z: -0.00000342591, w: 3.4887402}
        outSlope: {x: -10.606451, y: 5.1302342, z: -0.00000342591, w: 3.4887402}
        tangentMode: 0
        weightedMode: 0
        inWeight: {x: 0.33333334, y: 0.33333334, z: 0.33333334, w: 0.33333334}
        outWeight: {x: 0.33333334, y: 0.33333334, z: 0.33333334, w: 0.33333334}
      - serializedVersion: 3
        time: 0.8666673
        value: {x: -0.7071068, y: 8.659561e-17, z: -8.659561e-17, w: -0.7071068}
        inSlope: {x: 0.000062584935, y: -0.000025422252, z: 0.000025422558, w: -0.000064373075}
        outSlope: {x: 0.000062584935, y: -0.000025422252, z: 0.000025422558, w: -0.000064373075}
        tangentMode: 0
        weightedMode: 0
        inWeight: {x: 0.33333334, y: 0.33333334, z: 0.33333334, w: 0.33333334}
        outWeight: {x: 0.33333334, y: 0.33333334, z: 0.33333334, w: 0.33333334}
      - serializedVersion: 3
        time: 1.333334
        value: {x: -0.7071068, y: 8.659561e-17, z: -8.659561e-17, w: -0.7071068}
        inSlope: {x: 0, y: 0, z: 0, w: 0}
        outSlope: {x: 0, y: 0, z: 0, w: 0}
        tangentMode: 0
        weightedMode: 0
        inWeight: {x: 0.33333334, y: 0.33333334, z: 0.33333334, w: 0.33333334}
        outWeight: {x: 0.33333334, y: 0.33333334, z: 0.33333334, w: 0.33333334}
      m_PreInfinity: 2
      m_PostInfinity: 2
      m_RotationOrder: 4
    path: Leg_L
  m_CompressedRotationCurves: []
  m_EulerCurves: []
  m_PositionCurves:
  - curve:
      serializedVersion: 2
      m_Curve:
      - serializedVersion: 3
        time: 0
        value: {x: -0, y: 0, z: 0}
        inSlope: {x: 0, y: 0, z: 0}
        outSlope: {x: 0, y: 0, z: 0}
        tangentMode: 0
        weightedMode: 0
        inWeight: {x: 0.33333334, y: 0.33333334, z: 0.33333334}
        outWeight: {x: 0.33333334, y: 0.33333334, z: 0.33333334}
      - serializedVersion: 3
        time: 1.3333335
        value: {x: -0, y: 0, z: 0}
        inSlope: {x: 0, y: 0, z: 0}
        outSlope: {x: 0, y: 0, z: 0}
        tangentMode: 0
        weightedMode: 0
        inWeight: {x: 0.33333334, y: 0.33333334, z: 0.33333334}
        outWeight: {x: 0.33333334, y: 0.33333334, z: 0.33333334}
      m_PreInfinity: 2
      m_PostInfinity: 2
      m_RotationOrder: 4
    path: 
  - curve:
      serializedVersion: 2
      m_Curve:
      - serializedVersion: 3
        time: 0
        value: {x: -0, y: -0.012700003, z: 0.33123177}
        inSlope: {x: -0, y: -8.812404e-17, z: 2.8199692e-15}
        outSlope: {x: -0, y: -8.812404e-17, z: 2.8199692e-15}
        tangentMode: 0
        weightedMode: 0
        inWeight: {x: 0.33333334, y: 0.33333334, z: 0.33333334}
        outWeight: {x: 0.33333334, y: 0.33333334, z: 0.33333334}
      - serializedVersion: 3
        time: 0.23333359
        value: {x: -0, y: -0.012700003, z: 0.33123177}
        inSlope: {x: -0, y: -3.7767445e-17, z: 1.2085583e-15}
        outSlope: {x: 0.000059407652, y: -8.812404e-17, z: -0.00008297691}
        tangentMode: 0
        weightedMode: 0
        inWeight: {x: 0.33333334, y: 0.33333334, z: 0.33333334}
        outWeight: {x: 0.33333334, y: 0.33333334, z: 0.33333334}
      - serializedVersion: 3
        time: 0.2666669
        value: {x: -0, y: -0.012700003, z: 0.33123177}
        inSlope: {x: -1.872706, y: -3.7767445e-17, z: 2.502355}
        outSlope: {x: -1.8726513, y: -0.00000049744375, z: 2.5022802}
        tangentMode: 0
        weightedMode: 0
        inWeight: {x: 0.33333334, y: 0.33333334, z: 0.33333334}
        outWeight: {x: 0.33333334, y: 0.33333334, z: 0.33333334}
      - serializedVersion: 3
        time: 0.3000002
        value: {x: -0.12484923, y: -0.01270001, z: 0.4980587}
        inSlope: {x: -1.8728479, y: -0.00000049744375, z: 2.5025432}
        outSlope: {x: -1.8727703, y: -2.643721e-16, z: 2.5024486}
        tangentMode: 0
        weightedMode: 0
        inWeight: {x: 0.33333334, y: 0.33333334, z: 0.33333334}
        outWeight: {x: 0.33333334, y: 0.33333334, z: 0.33333334}
      - serializedVersion: 3
        time: 0.3333335
        value: {x: -0.12484923, y: -0.01270001, z: 0.4980587}
        inSlope: {x: -0.000049367634, y: -1.1330234e-16, z: 0.000065823675}
        outSlope: {x: 0.000035958277, y: -2.643721e-16, z: 0.00003293999}
        tangentMode: 0
        weightedMode: 0
        inWeight: {x: 0.33333334, y: 0.33333334, z: 0.33333334}
        outWeight: {x: 0.33333334, y: 0.33333334, z: 0.33333334}
      - serializedVersion: 3
        time: 0.3666668
        value: {x: -0.12484923, y: -0.01270001, z: 0.4980587}
        inSlope: {x: 1.8727622, y: -1.1330234e-16, z: 2.1960042}
        outSlope: {x: 1.8728827, y: -0.0000003806526, z: 2.196153}
        tangentMode: 0
        weightedMode: 0
        inWeight: {x: 0.33333334, y: 0.33333334, z: 0.33333334}
        outWeight: {x: 0.33333334, y: 0.33333334, z: 0.33333334}
      - serializedVersion: 3
        time: 0.4000001
        value: {x: -0, y: -0.012700019, z: 0.6444577}
        inSlope: {x: 1.8726176, y: -0.0000003806526, z: 2.1958416}
        outSlope: {x: 1.8727114, y: -1.5106978e-16, z: 2.195961}
        tangentMode: 0
        weightedMode: 0
        inWeight: {x: 0.33333334, y: 0.33333334, z: 0.33333334}
        outWeight: {x: 0.33333334, y: 0.33333334, z: 0.33333334}
      - serializedVersion: 3
        time: 0.4333334
        value: {x: -0, y: -0.012700019, z: 0.6444577}
        inSlope: {x: -0.000049877814, y: -3.5249615e-16, z: -0.000044920776}
        outSlope: {x: -0.000026952695, y: 0.00000016220994, z: 0.000027613562}
        tangentMode: 0
        weightedMode: 0
        inWeight: {x: 0.33333334, y: 0.33333334, z: 0.33333334}
        outWeight: {x: 0.33333334, y: 0.33333334, z: 0.33333334}
      - serializedVersion: 3
        time: 0.4666667
        value: {x: -0, y: -0.012700019, z: 0.6444577}
        inSlope: {x: 1.8541771, y: 0.00000037848986, z: -2.3577902}
        outSlope: {x: 1.8539903, y: -0.00000018816355, z: -2.357544}
        tangentMode: 0
        weightedMode: 0
        inWeight: {x: 0.33333334, y: 0.33333334, z: 0.33333334}
        outWeight: {x: 0.33333334, y: 0.33333334, z: 0.33333334}
      - serializedVersion: 3
        time: 0.5
        value: {x: 0.1236127, y: -0.012700015, z: 0.48727074}
        inSlope: {x: 1.854415, y: 0.000000028116359, z: -2.3580837}
        outSlope: {x: 1.8542019, y: -1.7624807e-16, z: -2.3578231}
        tangentMode: 0
        weightedMode: 0
        inWeight: {x: 0.33333334, y: 0.33333334, z: 0.33333334}
        outWeight: {x: 0.33333334, y: 0.33333334, z: 0.33333334}
      - serializedVersion: 3
        time: 0.5333333
        value: {x: 0.1236127, y: -0.012700015, z: 0.48727074}
        inSlope: {x: 0.000013464614, y: -7.553489e-17, z: -0.000026023858}
        outSlope: {x: -0.000068832276, y: -1.7624807e-16, z: -0.00014027016}
        tangentMode: 0
        weightedMode: 0
        inWeight: {x: 0.33333334, y: 0.33333334, z: 0.33333334}
        outWeight: {x: 0.33333334, y: 0.33333334, z: 0.33333334}
      - serializedVersion: 3
        time: 0.5666666
        value: {x: 0.1236127, y: -0.012700015, z: 0.48727074}
        inSlope: {x: -1.8542331, y: -7.553489e-17, z: -4.0524783}
        outSlope: {x: -1.8542182, y: 0.00000014707028, z: -4.052464}
        tangentMode: 0
        weightedMode: 0
        inWeight: {x: 0.33333334, y: 0.33333334, z: 0.33333334}
        outWeight: {x: 0.33333334, y: 0.33333334, z: 0.33333334}
      - serializedVersion: 3
        time: 0.5999999
        value: {x: -0, y: -0.012700003, z: 0.21711123}
        inSlope: {x: -1.8541852, y: 0.00000014707028, z: -4.052384}
        outSlope: {x: -1.8541657, y: -8.812278e-17, z: -4.0523357}
        tangentMode: 0
        weightedMode: 0
        inWeight: {x: 0.33333334, y: 0.33333334, z: 0.33333334}
        outWeight: {x: 0.33333334, y: 0.33333334, z: 0.33333334}
      - serializedVersion: 3
        time: 0.6333337
        value: {x: -0, y: -0.012700003, z: 0.21711123}
        inSlope: {x: 0.0000009855738, y: -3.7766906e-17, z: 0.000004637321}
        outSlope: {x: -0, y: -8.812404e-17, z: 4.229954e-15}
        tangentMode: 0
        weightedMode: 0
        inWeight: {x: 0.33333334, y: 0.33333334, z: 0.33333334}
        outWeight: {x: 0.33333334, y: 0.33333334, z: 0.33333334}
      - serializedVersion: 3
        time: 0.7666669
        value: {x: -0, y: -0.012700003, z: 0.21711123}
        inSlope: {x: -0, y: -3.7767445e-17, z: 1.8128375e-15}
        outSlope: {x: -5.2218885e-13, y: 0.000011866464, z: -0.000030349538}
        tangentMode: 0
        weightedMode: 0
        inWeight: {x: 0.33333334, y: 0.33333334, z: 0.33333334}
        outWeight: {x: 0.33333334, y: 0.33333334, z: 0.33333334}
      - serializedVersion: 3
        time: 0.8000002
        value: {x: -0, y: -0.012700003, z: 0.21711123}
        inSlope: {x: -0.00000003687026, y: 0.84349334, z: -2.3605094}
        outSlope: {x: -0.00000003687353, y: 0.84356797, z: -2.3607242}
        tangentMode: 0
        weightedMode: 0
        inWeight: {x: 0.33333334, y: 0.33333334, z: 0.33333334}
        outWeight: {x: 0.33333334, y: 0.33333334, z: 0.33333334}
      - serializedVersion: 3
        time: 0.8333335
        value: {x: -0.0000000024579945, y: 0.04353235, z: 0.059745178}
        inSlope: {x: -0.000000036866794, y: 0.84341353, z: -2.360291}
        outSlope: {x: -0.000000036869526, y: 0.8434767, z: -2.3604646}
        tangentMode: 0
        weightedMode: 0
        inWeight: {x: 0.33333334, y: 0.33333334, z: 0.33333334}
        outWeight: {x: 0.33333334, y: 0.33333334, z: 0.33333334}
      - serializedVersion: 3
        time: 0.8666668
        value: {x: -0.0000000024579945, y: 0.04353235, z: 0.059745178}
        inSlope: {x: 7.6593284e-13, y: -0.000017493536, z: 0.00004934961}
        outSlope: {x: -2.1010408e-23, y: 1.0574884e-15, z: 1.4099846e-15}
        tangentMode: 0
        weightedMode: 0
        inWeight: {x: 0.33333334, y: 0.33333334, z: 0.33333334}
        outWeight: {x: 0.33333334, y: 0.33333334, z: 0.33333334}
      - serializedVersion: 3
        time: 1.3333335
        value: {x: -0.0000000024579945, y: 0.04353235, z: 0.059745178}
        inSlope: {x: -9.004461e-24, y: 4.5320937e-16, z: 6.0427913e-16}
        outSlope: {x: -9.004461e-24, y: 4.5320937e-16, z: 6.0427913e-16}
        tangentMode: 0
        weightedMode: 0
        inWeight: {x: 0.33333334, y: 0.33333334, z: 0.33333334}
        outWeight: {x: 0.33333334, y: 0.33333334, z: 0.33333334}
      m_PreInfinity: 2
      m_PostInfinity: 2
      m_RotationOrder: 4
    path: Body
  - curve:
      serializedVersion: 2
      m_Curve:
      - serializedVersion: 3
        time: 0
        value: {x: -0.16510001, y: 0.000000003027916, z: 0.17779996}
        inSlope: {x: -2.8199692e-15, y: 4.2020816e-23, z: 2.8199692e-15}
        outSlope: {x: -2.8199692e-15, y: 4.2020816e-23, z: 2.8199692e-15}
        tangentMode: 0
        weightedMode: 0
        inWeight: {x: 0.33333334, y: 0.33333334, z: 0.33333334}
        outWeight: {x: 0.33333334, y: 0.33333334, z: 0.33333334}
      - serializedVersion: 3
        time: 0.7666669
        value: {x: -0.16510001, y: 0.000000003027916, z: 0.1778}
        inSlope: {x: -1.2085583e-15, y: 1.8008921e-23, z: 6.0427913e-16}
        outSlope: {x: -2.8199692e-15, y: -0.000013701815, z: -0.000006501859}
        tangentMode: 0
        weightedMode: 0
        inWeight: {x: 0.33333334, y: 0.33333334, z: 0.33333334}
        outWeight: {x: 0.33333334, y: 0.33333334, z: 0.33333334}
      - serializedVersion: 3
        time: 0.8000002
        value: {x: -0.16510001, y: 0.000000003027916, z: 0.1778}
        inSlope: {x: -1.2085583e-15, y: -0.96866035, z: -0.45169413}
        outSlope: {x: -0.0000009343293, y: -0.9687458, z: -0.4517324}
        tangentMode: 0
        weightedMode: 0
        inWeight: {x: 0.33333334, y: 0.33333334, z: 0.33333334}
        outWeight: {x: 0.33333334, y: 0.33333334, z: 0.33333334}
      - serializedVersion: 3
        time: 0.8333335
        value: {x: -0.1651, y: -0.064576745, z: 0.14768736}
        inSlope: {x: -0.0000009343293, y: -0.9685687, z: -0.45164937}
        outSlope: {x: -2.8199692e-15, y: -0.968641, z: -0.4516829}
        tangentMode: 0
        weightedMode: 0
        inWeight: {x: 0.33333334, y: 0.33333334, z: 0.33333334}
        outWeight: {x: 0.33333334, y: 0.33333334, z: 0.33333334}
      - serializedVersion: 3
        time: 0.8666668
        value: {x: -0.1651, y: -0.064576745, z: 0.14768736}
        inSlope: {x: -1.2085583e-15, y: 0.000020517724, z: 0.000008205176}
        outSlope: {x: -2.8199692e-15, y: -6.0427913e-16, z: 2.8199692e-15}
        tangentMode: 0
        weightedMode: 0
        inWeight: {x: 0.33333334, y: 0.33333334, z: 0.33333334}
        outWeight: {x: 0.33333334, y: 0.33333334, z: 0.33333334}
      - serializedVersion: 3
        time: 1.3333335
        value: {x: -0.1651, y: -0.06457674, z: 0.14768739}
        inSlope: {x: -1.2085583e-15, y: -1.7121241e-15, z: 6.0427913e-16}
        outSlope: {x: -1.2085583e-15, y: -1.7121241e-15, z: 6.0427913e-16}
        tangentMode: 0
        weightedMode: 0
        inWeight: {x: 0.33333334, y: 0.33333334, z: 0.33333334}
        outWeight: {x: 0.33333334, y: 0.33333334, z: 0.33333334}
      m_PreInfinity: 2
      m_PostInfinity: 2
      m_RotationOrder: 4
    path: Body/Arm_L
  - curve:
      serializedVersion: 2
      m_Curve:
      - serializedVersion: 3
        time: 0
        value: {x: -0, y: 0.0000000098407265, z: 0.22860004}
        inSlope: {x: 0, y: 0, z: 0}
        outSlope: {x: 0, y: 0, z: 0}
        tangentMode: 0
        weightedMode: 0
        inWeight: {x: 0.33333334, y: 0.33333334, z: 0.33333334}
        outWeight: {x: 0.33333334, y: 0.33333334, z: 0.33333334}
      - serializedVersion: 3
        time: 1.3333335
        value: {x: -0, y: 0.0000000098407265, z: 0.22860004}
        inSlope: {x: 0, y: 0, z: 0}
        outSlope: {x: 0, y: 0, z: 0}
        tangentMode: 0
        weightedMode: 0
        inWeight: {x: 0.33333334, y: 0.33333334, z: 0.33333334}
        outWeight: {x: 0.33333334, y: 0.33333334, z: 0.33333334}
      m_PreInfinity: 2
      m_PostInfinity: 2
      m_RotationOrder: 4
    path: Body/Head
  - curve:
      serializedVersion: 2
      m_Curve:
      - serializedVersion: 3
        time: 0
        value: {x: 0.16510001, y: 0.000000003027916, z: 0.17779996}
        inSlope: {x: 2.8199692e-15, y: 4.2020816e-23, z: 2.8199692e-15}
        outSlope: {x: 2.8199692e-15, y: 4.2020816e-23, z: 2.8199692e-15}
        tangentMode: 0
        weightedMode: 0
        inWeight: {x: 0.33333334, y: 0.33333334, z: 0.33333334}
        outWeight: {x: 0.33333334, y: 0.33333334, z: 0.33333334}
      - serializedVersion: 3
        time: 0.7666669
        value: {x: 0.16510001, y: 0.000000003027916, z: 0.1778}
        inSlope: {x: 1.2085583e-15, y: 1.8008921e-23, z: 6.0427913e-16}
        outSlope: {x: 2.8199692e-15, y: -0.000013701815, z: -0.000006501859}
        tangentMode: 0
        weightedMode: 0
        inWeight: {x: 0.33333334, y: 0.33333334, z: 0.33333334}
        outWeight: {x: 0.33333334, y: 0.33333334, z: 0.33333334}
      - serializedVersion: 3
        time: 0.8000002
        value: {x: 0.16510001, y: 0.000000003027916, z: 0.1778}
        inSlope: {x: 1.2085583e-15, y: -0.96866035, z: -0.45169413}
        outSlope: {x: 0.0000009343293, y: -0.9687458, z: -0.4517324}
        tangentMode: 0
        weightedMode: 0
        inWeight: {x: 0.33333334, y: 0.33333334, z: 0.33333334}
        outWeight: {x: 0.33333334, y: 0.33333334, z: 0.33333334}
      - serializedVersion: 3
        time: 0.8333335
        value: {x: 0.1651, y: -0.064576745, z: 0.14768736}
        inSlope: {x: 0.0000009343293, y: -0.9685687, z: -0.45164937}
        outSlope: {x: 2.8199692e-15, y: -0.968641, z: -0.4516829}
        tangentMode: 0
        weightedMode: 0
        inWeight: {x: 0.33333334, y: 0.33333334, z: 0.33333334}
        outWeight: {x: 0.33333334, y: 0.33333334, z: 0.33333334}
      - serializedVersion: 3
        time: 0.8666668
        value: {x: 0.1651, y: -0.064576745, z: 0.14768736}
        inSlope: {x: 1.2085583e-15, y: 0.000020517724, z: 0.000008205176}
        outSlope: {x: 2.8199692e-15, y: -6.0427913e-16, z: 2.8199692e-15}
        tangentMode: 0
        weightedMode: 0
        inWeight: {x: 0.33333334, y: 0.33333334, z: 0.33333334}
        outWeight: {x: 0.33333334, y: 0.33333334, z: 0.33333334}
      - serializedVersion: 3
        time: 1.3333335
        value: {x: 0.1651, y: -0.06457674, z: 0.14768739}
        inSlope: {x: 1.2085583e-15, y: -1.7121241e-15, z: 6.0427913e-16}
        outSlope: {x: 1.2085583e-15, y: -1.7121241e-15, z: 6.0427913e-16}
        tangentMode: 0
        weightedMode: 0
        inWeight: {x: 0.33333334, y: 0.33333334, z: 0.33333334}
        outWeight: {x: 0.33333334, y: 0.33333334, z: 0.33333334}
      m_PreInfinity: 2
      m_PostInfinity: 2
      m_RotationOrder: 4
    path: Body/Arm_R
  - curve:
      serializedVersion: 2
      m_Curve:
      - serializedVersion: 3
        time: 0
        value: {x: 0.05079828, y: -0.016636534, z: -0.15873076}
        inSlope: {x: 3.5249615e-16, y: -0, z: -4.229954e-15}
        outSlope: {x: 3.5249615e-16, y: -0, z: -4.229954e-15}
        tangentMode: 0
        weightedMode: 0
        inWeight: {x: 0.33333334, y: 0.33333334, z: 0.33333334}
        outWeight: {x: 0.33333334, y: 0.33333334, z: 0.33333334}
      - serializedVersion: 3
        time: 0.7666669
        value: {x: 0.050798256, y: -0.016636534, z: -0.15873079}
        inSlope: {x: 4.5320937e-16, y: -0, z: -1.2085583e-15}
        outSlope: {x: -0.0000112695325, y: 0.00000086667467, z: -0.000023840674}
        tangentMode: 0
        weightedMode: 0
        inWeight: {x: 0.33333334, y: 0.33333334, z: 0.33333334}
        outWeight: {x: 0.33333334, y: 0.33333334, z: 0.33333334}
      - serializedVersion: 3
        time: 0.8000002
        value: {x: 0.050798256, y: -0.016636534, z: -0.15873079}
        inSlope: {x: -0.77099204, y: 0.052178826, z: -1.6737622}
        outSlope: {x: -0.77105886, y: 0.052183256, z: -1.6739107}
        tangentMode: 0
        weightedMode: 0
        inWeight: {x: 0.33333334, y: 0.33333334, z: 0.33333334}
        outWeight: {x: 0.33333334, y: 0.33333334, z: 0.33333334}
      - serializedVersion: 3
        time: 0.8333335
        value: {x: -0.00060062343, y: -0.013157991, z: -0.27031398}
        inSlope: {x: -0.7709176, y: 0.052173734, z: -1.6736044}
        outSlope: {x: -0.7709745, y: 0.052177798, z: -1.6737298}
        tangentMode: 0
        weightedMode: 0
        inWeight: {x: 0.33333334, y: 0.33333334, z: 0.33333334}
        outWeight: {x: 0.33333334, y: 0.33333334, z: 0.33333334}
      - serializedVersion: 3
        time: 0.8666668
        value: {x: -0.00060062343, y: -0.013157991, z: -0.27031398}
        inSlope: {x: 0.000016137188, y: -0.0000008094947, z: 0.000034554905}
        outSlope: {x: -1.1015505e-17, y: -1.5106978e-16, z: -5.6399384e-15}
        tangentMode: 0
        weightedMode: 0
        inWeight: {x: 0.33333334, y: 0.33333334, z: 0.33333334}
        outWeight: {x: 0.33333334, y: 0.33333334, z: 0.33333334}
      - serializedVersion: 3
        time: 0.9000001
        value: {x: -0.00060062343, y: -0.013157991, z: -0.27031398}
        inSlope: {x: -4.7209307e-18, y: -3.5249615e-16, z: -2.4171165e-15}
        outSlope: {x: 0.000043062806, y: -0.000002111089, z: -0.000098737204}
        tangentMode: 0
        weightedMode: 0
        inWeight: {x: 0.33333334, y: 0.33333334, z: 0.33333334}
        outWeight: {x: 0.33333334, y: 0.33333334, z: 0.33333334}
      - serializedVersion: 3
        time: 0.9333334
        value: {x: -0.00060062343, y: -0.013157991, z: -0.27031398}
        inSlope: {x: 1.6822506, y: -0.07918716, z: -3.8104591}
        outSlope: {x: 1.6823186, y: -0.07919049, z: -3.8106165}
        tangentMode: 0
        weightedMode: 0
        inWeight: {x: 0.33333334, y: 0.33333334, z: 0.33333334}
        outWeight: {x: 0.33333334, y: 0.33333334, z: 0.33333334}
      - serializedVersion: 3
        time: 0.9666667
        value: {x: 0.1115476, y: -0.018437047, z: -0.5243407}
        inSlope: {x: 1.682149, y: -0.07918249, z: -3.8102255}
        outSlope: {x: 1.682194, y: -0.07918462, z: -3.8103313}
        tangentMode: 0
        weightedMode: 0
        inWeight: {x: 0.33333334, y: 0.33333334, z: 0.33333334}
        outWeight: {x: 0.33333334, y: 0.33333334, z: 0.33333334}
      - serializedVersion: 3
        time: 1
        value: {x: 0.1115476, y: -0.018437047, z: -0.5243407}
        inSlope: {x: -0.000055317527, y: 0.0000023767193, z: 0.000119272954}
        outSlope: {x: 0.00000043007944, y: -0.0000010776477, z: 0.000015539143}
        tangentMode: 0
        weightedMode: 0
        inWeight: {x: 0.33333334, y: 0.33333334, z: 0.33333334}
        outWeight: {x: 0.33333334, y: 0.33333334, z: 0.33333334}
      - serializedVersion: 3
        time: 1.0333333
        value: {x: 0.1115476, y: -0.018437047, z: -0.5243407}
        inSlope: {x: -0.083229266, y: 0.1258933, z: -1.1076629}
        outSlope: {x: -0.0832182, y: 0.12587737, z: -1.1075461}
        tangentMode: 0
        weightedMode: 0
        inWeight: {x: 0.33333334, y: 0.33333334, z: 0.33333334}
        outWeight: {x: 0.33333334, y: 0.33333334, z: 0.33333334}
      - serializedVersion: 3
        time: 1.0666666
        value: {x: 0.10599898, y: -0.01004413, z: -0.59818584}
        inSlope: {x: -0.083240695, y: 0.12591133, z: -1.1078438}
        outSlope: {x: -0.0832323, y: 0.12589404, z: -1.1076802}
        tangentMode: 0
        weightedMode: 0
        inWeight: {x: 0.33333334, y: 0.33333334, z: 0.33333334}
        outWeight: {x: 0.33333334, y: 0.33333334, z: 0.33333334}
      - serializedVersion: 3
        time: 1.0999999
        value: {x: 0.10599898, y: -0.01004413, z: -0.59818584}
        inSlope: {x: -0.0000008676002, y: 0.0000003281718, z: -0.0000017632508}
        outSlope: {x: 2.1149466e-15, y: -1.7624556e-16, z: -1.1279716e-14}
        tangentMode: 0
        weightedMode: 0
        inWeight: {x: 0.33333334, y: 0.33333334, z: 0.33333334}
        outWeight: {x: 0.33333334, y: 0.33333334, z: 0.33333334}
      - serializedVersion: 3
        time: 1.3333335
        value: {x: 0.10599898, y: -0.01004413, z: -0.59818584}
        inSlope: {x: 9.064187e-16, y: -7.553489e-17, z: -4.834233e-15}
        outSlope: {x: 9.064187e-16, y: -7.553489e-17, z: -4.834233e-15}
        tangentMode: 0
        weightedMode: 0
        inWeight: {x: 0.33333334, y: 0.33333334, z: 0.33333334}
        outWeight: {x: 0.33333334, y: 0.33333334, z: 0.33333334}
      m_PreInfinity: 2
      m_PostInfinity: 2
      m_RotationOrder: 4
    path: Body/Arm_R/Pickaxe
  - curve:
      serializedVersion: 2
      m_Curve:
      - serializedVersion: 3
        time: 0
        value: {x: 0.121000014, y: -0.025400009, z: 0.3071301}
        inSlope: {x: 2.8199692e-15, y: -1.7624807e-16, z: -0}
        outSlope: {x: 2.8199692e-15, y: -1.7624807e-16, z: -0}
        tangentMode: 0
        weightedMode: 0
        inWeight: {x: 0.33333334, y: 0.33333334, z: 0.33333334}
        outWeight: {x: 0.33333334, y: 0.33333334, z: 0.33333334}
      - serializedVersion: 3
        time: 0.23333359
        value: {x: 0.121000014, y: -0.025400009, z: 0.3071301}
        inSlope: {x: 1.2085583e-15, y: -7.553489e-17, z: -0}
        outSlope: {x: 0.00013094272, y: -1.7624807e-16, z: -0.00003284132}
        tangentMode: 0
        weightedMode: 0
        inWeight: {x: 0.33333334, y: 0.33333334, z: 0.33333334}
        outWeight: {x: 0.33333334, y: 0.33333334, z: 0.33333334}
      - serializedVersion: 3
        time: 0.2666669
        value: {x: 0.121000014, y: -0.025400009, z: 0.3071301}
        inSlope: {x: -4.124308, y: -7.553489e-17, z: 1.115051}
        outSlope: {x: -4.12419, y: 0.00000023358233, z: 1.1150178}
        tangentMode: 0
        weightedMode: 0
        inWeight: {x: 0.33333334, y: 0.33333334, z: 0.33333334}
        outWeight: {x: 0.33333334, y: 0.33333334, z: 0.33333334}
      - serializedVersion: 3
        time: 0.3000002
        value: {x: -0.15395851, y: -0.025400013, z: 0.38146803}
        inSlope: {x: -4.1246257, y: 0.00000023358233, z: 1.115132}
        outSlope: {x: -4.1244454, y: -0, z: 1.1150864}
        tangentMode: 0
        weightedMode: 0
        inWeight: {x: 0.33333334, y: 0.33333334, z: 0.33333334}
        outWeight: {x: 0.33333334, y: 0.33333334, z: 0.33333334}
      - serializedVersion: 3
        time: 0.3333335
        value: {x: -0.15395851, y: -0.025400013, z: 0.38146803}
        inSlope: {x: -0.00010350472, y: -0, z: 0.000026851943}
        outSlope: {x: 0.000009096118, y: -0, z: 0.000090101945}
        tangentMode: 0
        weightedMode: 0
        inWeight: {x: 0.33333334, y: 0.33333334, z: 0.33333334}
        outWeight: {x: 0.33333334, y: 0.33333334, z: 0.33333334}
      - serializedVersion: 3
        time: 0.3666668
        value: {x: -0.15395851, y: -0.025400013, z: 0.38146803}
        inSlope: {x: 0.41477686, y: -0, z: 4.345268}
        outSlope: {x: 0.41480172, y: -0.0000009948875, z: 4.345546}
        tangentMode: 0
        weightedMode: 0
        inWeight: {x: 0.33333334, y: 0.33333334, z: 0.33333334}
        outWeight: {x: 0.33333334, y: 0.33333334, z: 0.33333334}
      - serializedVersion: 3
        time: 0.4000001
        value: {x: -0.12630719, y: -0.025400028, z: 0.67114866}
        inSlope: {x: 0.41474286, y: -0.0000009948875, z: 4.344927}
        outSlope: {x: 0.41476473, y: -3.5249615e-16, z: 4.3451447}
        tangentMode: 0
        weightedMode: 0
        inWeight: {x: 0.33333334, y: 0.33333334, z: 0.33333334}
        outWeight: {x: 0.33333334, y: 0.33333334, z: 0.33333334}
      - serializedVersion: 3
        time: 0.4333334
        value: {x: -0.12630719, y: -0.025400028, z: 0.67114866}
        inSlope: {x: -0.000013396993, y: -1.5106978e-16, z: -0.00011579654}
        outSlope: {x: -0.00005913942, y: -3.5249615e-16, z: 0.000022459348}
        tangentMode: 0
        weightedMode: 0
        inWeight: {x: 0.33333334, y: 0.33333334, z: 0.33333334}
        outWeight: {x: 0.33333334, y: 0.33333334, z: 0.33333334}
      - serializedVersion: 3
        time: 0.4666667
        value: {x: -0.12630719, y: -0.025400028, z: 0.67114866}
        inSlope: {x: 4.069379, y: -1.5106978e-16, z: -1.1329314}
        outSlope: {x: 4.068971, y: -3.5249615e-16, z: -1.1328213}
        tangentMode: 0
        weightedMode: 0
        inWeight: {x: 0.33333334, y: 0.33333334, z: 0.33333334}
        outWeight: {x: 0.33333334, y: 0.33333334, z: 0.33333334}
      - serializedVersion: 3
        time: 0.5
        value: {x: 0.1449868, y: -0.025400028, z: 0.595619}
        inSlope: {x: 4.0699034, y: -1.5106978e-16, z: -1.1330706}
        outSlope: {x: 4.069433, y: -3.5249615e-16, z: -1.1329538}
        tangentMode: 0
        weightedMode: 0
        inWeight: {x: 0.33333334, y: 0.33333334, z: 0.33333334}
        outWeight: {x: 0.33333334, y: 0.33333334, z: 0.33333334}
      - serializedVersion: 3
        time: 0.5333333
        value: {x: 0.1449868, y: -0.025400028, z: 0.595619}
        inSlope: {x: 0.000033428387, y: -1.5106978e-16, z: -0.0000069547223}
        outSlope: {x: -0.000015150318, y: -3.5249615e-16, z: -0.0002337623}
        tangentMode: 0
        weightedMode: 0
        inWeight: {x: 0.33333334, y: 0.33333334, z: 0.33333334}
        outWeight: {x: 0.33333334, y: 0.33333334, z: 0.33333334}
      - serializedVersion: 3
        time: 0.5666666
        value: {x: 0.1449868, y: -0.025400028, z: 0.595619}
        inSlope: {x: -0.35980976, y: -1.5106978e-16, z: -6.039288}
        outSlope: {x: -0.3598053, y: 0.0000007613052, z: -6.039244}
        tangentMode: 0
        weightedMode: 0
        inWeight: {x: 0.33333334, y: 0.33333334, z: 0.33333334}
        outWeight: {x: 0.33333334, y: 0.33333334, z: 0.33333334}
      - serializedVersion: 3
        time: 0.5999999
        value: {x: 0.121000014, y: -0.025400009, z: 0.19300961}
        inSlope: {x: -0.35979837, y: 0.0000007613052, z: -6.0391283}
        outSlope: {x: -0.3597981, y: -1.7624556e-16, z: -6.039058}
        tangentMode: 0
        weightedMode: 0
        inWeight: {x: 0.33333334, y: 0.33333334, z: 0.33333334}
        outWeight: {x: 0.33333334, y: 0.33333334, z: 0.33333334}
      - serializedVersion: 3
        time: 0.6333337
        value: {x: 0.121000014, y: -0.025400009, z: 0.19300961}
        inSlope: {x: -0.000000010722819, y: -7.553381e-17, z: 0.0000032804512}
        outSlope: {x: 2.8199692e-15, y: -1.7624807e-16, z: 1.4099846e-15}
        tangentMode: 0
        weightedMode: 0
        inWeight: {x: 0.33333334, y: 0.33333334, z: 0.33333334}
        outWeight: {x: 0.33333334, y: 0.33333334, z: 0.33333334}
      - serializedVersion: 3
        time: 0.7666669
        value: {x: 0.121000014, y: -0.025400009, z: 0.19300961}
        inSlope: {x: 1.2085583e-15, y: -7.553489e-17, z: 6.0427913e-16}
        outSlope: {x: 2.8199692e-15, y: 0.00002947653, z: -0.000027745855}
        tangentMode: 0
        weightedMode: 0
        inWeight: {x: 0.33333334, y: 0.33333334, z: 0.33333334}
        outWeight: {x: 0.33333334, y: 0.33333334, z: 0.33333334}
      - serializedVersion: 3
        time: 0.8000002
        value: {x: 0.121000014, y: -0.025400009, z: 0.19300961}
        inSlope: {x: 1.2085583e-15, y: 2.0959263, z: -2.0812252}
        outSlope: {x: 0.0000009343293, y: 2.0961118, z: -2.0814087}
        tangentMode: 0
        weightedMode: 0
        inWeight: {x: 0.33333334, y: 0.33333334, z: 0.33333334}
        outWeight: {x: 0.33333334, y: 0.33333334, z: 0.33333334}
      - serializedVersion: 3
        time: 0.8333335
        value: {x: 0.121, y: 0.114327066, z: 0.054262687}
        inSlope: {x: 0.0000009343293, y: 2.0957282, z: -2.0810266}
        outSlope: {x: 2.8199692e-15, y: 2.0958807, z: -2.0811815}
        tangentMode: 0
        weightedMode: 0
        inWeight: {x: 0.33333334, y: 0.33333334, z: 0.33333334}
        outWeight: {x: 0.33333334, y: 0.33333334, z: 0.33333334}
      - serializedVersion: 3
        time: 0.8666668
        value: {x: 0.121, y: 0.114327066, z: 0.054262687}
        inSlope: {x: 1.2085583e-15, y: -0.00004622144, z: 0.00004297768}
        outSlope: {x: 2.8199692e-15, y: 1.4099846e-15, z: 7.049923e-16}
        tangentMode: 0
        weightedMode: 0
        inWeight: {x: 0.33333334, y: 0.33333334, z: 0.33333334}
        outWeight: {x: 0.33333334, y: 0.33333334, z: 0.33333334}
      - serializedVersion: 3
        time: 1.3333335
        value: {x: 0.121, y: 0.11432706, z: 0.054262687}
        inSlope: {x: 1.2085583e-15, y: 6.0427913e-16, z: 3.0213956e-16}
        outSlope: {x: 1.2085583e-15, y: 6.0427913e-16, z: 3.0213956e-16}
        tangentMode: 0
        weightedMode: 0
        inWeight: {x: 0.33333334, y: 0.33333334, z: 0.33333334}
        outWeight: {x: 0.33333334, y: 0.33333334, z: 0.33333334}
      m_PreInfinity: 2
      m_PostInfinity: 2
      m_RotationOrder: 4
    path: Leg_R
  - curve:
      serializedVersion: 2
      m_Curve:
      - serializedVersion: 3
        time: 0
        value: {x: -0.121000014, y: -0.025400003, z: 0.3071301}
        inSlope: {x: -2.8199692e-15, y: -3.5249615e-16, z: -0}
        outSlope: {x: -2.8199692e-15, y: -3.5249615e-16, z: -0}
        tangentMode: 0
        weightedMode: 0
        inWeight: {x: 0.33333334, y: 0.33333334, z: 0.33333334}
        outWeight: {x: 0.33333334, y: 0.33333334, z: 0.33333334}
      - serializedVersion: 3
        time: 0.23333359
        value: {x: -0.121000014, y: -0.025400003, z: 0.3071301}
        inSlope: {x: -1.2085583e-15, y: -1.5106978e-16, z: -0}
        outSlope: {x: 0.000014260128, y: -3.5249615e-16, z: -0.00014866589}
        tangentMode: 0
        weightedMode: 0
        inWeight: {x: 0.33333334, y: 0.33333334, z: 0.33333334}
        outWeight: {x: 0.33333334, y: 0.33333334, z: 0.33333334}
      - serializedVersion: 3
        time: 0.2666669
        value: {x: -0.121000014, y: -0.025400003, z: 0.3071301}
        inSlope: {x: -0.4813712, y: -1.5106978e-16, z: 4.5192227}
        outSlope: {x: -0.48135665, y: -0.0000009948875, z: 4.519098}
        tangentMode: 0
        weightedMode: 0
        inWeight: {x: 0.33333334, y: 0.33333334, z: 0.33333334}
        outWeight: {x: 0.33333334, y: 0.33333334, z: 0.33333334}
      - serializedVersion: 3
        time: 0.3000002
        value: {x: -0.15309192, y: -0.025400018, z: 0.6084172}
        inSlope: {x: -0.48140684, y: -0.0000009948875, z: 4.519575}
        outSlope: {x: -0.48138762, y: -5.287442e-16, z: 4.519375}
        tangentMode: 0
        weightedMode: 0
        inWeight: {x: 0.33333334, y: 0.33333334, z: 0.33333334}
        outWeight: {x: 0.33333334, y: 0.33333334, z: 0.33333334}
      - serializedVersion: 3
        time: 0.3333335
        value: {x: -0.15309192, y: -0.025400018, z: 0.6084172}
        inSlope: {x: -0.000012558581, y: -2.2660469e-16, z: 0.00011433048}
        outSlope: {x: 0.00007841312, y: -5.287442e-16, z: 0.000019061717}
        tangentMode: 0
        weightedMode: 0
        inWeight: {x: 0.33333334, y: 0.33333334, z: 0.33333334}
        outWeight: {x: 0.33333334, y: 0.33333334, z: 0.33333334}
      - serializedVersion: 3
        time: 0.3666668
        value: {x: -0.15309192, y: -0.025400018, z: 0.6084172}
        inSlope: {x: 4.01935, y: -2.2660469e-16, z: 0.97592247}
        outSlope: {x: 4.0196095, y: 0.00000046716465, z: 0.9759779}
        tangentMode: 0
        weightedMode: 0
        inWeight: {x: 0.33333334, y: 0.33333334, z: 0.33333334}
        outWeight: {x: 0.33333334, y: 0.33333334, z: 0.33333334}
      - serializedVersion: 3
        time: 0.4000001
        value: {x: 0.11486144, y: -0.025400024, z: 0.67347795}
        inSlope: {x: 4.019039, y: 0.00000046716465, z: 0.9758464}
        outSlope: {x: 4.0192437, y: -3.5249615e-16, z: 0.9758948}
        tangentMode: 0
        weightedMode: 0
        inWeight: {x: 0.33333334, y: 0.33333334, z: 0.33333334}
        outWeight: {x: 0.33333334, y: 0.33333334, z: 0.33333334}
      - serializedVersion: 3
        time: 0.4333334
        value: {x: 0.11486144, y: -0.025400024, z: 0.67347795}
        inSlope: {x: -0.00010542482, y: -1.5106978e-16, z: -0.000022464026}
        outSlope: {x: -0.0000051788434, y: 0.0000003244199, z: 0.00005523621}
        tangentMode: 0
        weightedMode: 0
        inWeight: {x: 0.33333334, y: 0.33333334, z: 0.33333334}
        outWeight: {x: 0.33333334, y: 0.33333334, z: 0.33333334}
      - serializedVersion: 3
        time: 0.4666667
        value: {x: 0.11486144, y: -0.025400024, z: 0.67347795}
        inSlope: {x: 0.3984447, y: 0.0000007569797, z: -4.410574}
        outSlope: {x: 0.39840627, y: 0.00000014707028, z: -4.410125}
        tangentMode: 0
        weightedMode: 0
        inWeight: {x: 0.33333334, y: 0.33333334, z: 0.33333334}
        outWeight: {x: 0.33333334, y: 0.33333334, z: 0.33333334}
      - serializedVersion: 3
        time: 0.5
        value: {x: 0.14142472, y: -0.025400013, z: 0.3794374}
        inSlope: {x: 0.39849797, y: 0.00000014707028, z: -4.411135}
        outSlope: {x: 0.39845464, y: -0, z: -4.410638}
        tangentMode: 0
        weightedMode: 0
        inWeight: {x: 0.33333334, y: 0.33333334, z: 0.33333334}
        outWeight: {x: 0.33333334, y: 0.33333334, z: 0.33333334}
      - serializedVersion: 3
        time: 0.5333333
        value: {x: 0.14142472, y: -0.025400013, z: 0.3794374}
        inSlope: {x: 0.0000065002723, y: -0, z: -0.00003646647}
        outSlope: {x: -0.0001467551, y: 0.0000003244199, z: -0.000103897706}
        tangentMode: 0
        weightedMode: 0
        inWeight: {x: 0.33333334, y: 0.33333334, z: 0.33333334}
        outWeight: {x: 0.33333334, y: 0.33333334, z: 0.33333334}
      - serializedVersion: 3
        time: 0.5666666
        value: {x: 0.14142472, y: -0.025400013, z: 0.3794374}
        inSlope: {x: -3.9364636, y: 0.0000007569797, z: -2.796482}
        outSlope: {x: -3.9364314, y: -0.0000003763271, z: -2.796458}
        tangentMode: 0
        weightedMode: 0
        inWeight: {x: 0.33333334, y: 0.33333334, z: 0.33333334}
        outWeight: {x: 0.33333334, y: 0.33333334, z: 0.33333334}
      - serializedVersion: 3
        time: 0.5999999
        value: {x: -0.121000014, y: -0.025400003, z: 0.19300961}
        inSlope: {x: -3.9363577, y: 0.000000056232718, z: -2.7964044}
        outSlope: {x: -3.9363186, y: -3.5249112e-16, z: -2.7963774}
        tangentMode: 0
        weightedMode: 0
        inWeight: {x: 0.33333334, y: 0.33333334, z: 0.33333334}
        outWeight: {x: 0.33333334, y: 0.33333334, z: 0.33333334}
      - serializedVersion: 3
        time: 0.6333337
        value: {x: -0.121000014, y: -0.025400003, z: 0.19300961}
        inSlope: {x: 0.0000024780104, y: -1.5106762e-16, z: 0.0000003492151}
        outSlope: {x: -2.8199692e-15, y: -3.5249615e-16, z: 1.4099846e-15}
        tangentMode: 0
        weightedMode: 0
        inWeight: {x: 0.33333334, y: 0.33333334, z: 0.33333334}
        outWeight: {x: 0.33333334, y: 0.33333334, z: 0.33333334}
      - serializedVersion: 3
        time: 0.7666669
        value: {x: -0.121000014, y: -0.025400003, z: 0.19300961}
        inSlope: {x: -1.2085583e-15, y: -1.5106978e-16, z: 6.0427913e-16}
        outSlope: {x: -2.8199692e-15, y: 0.000029152112, z: -0.000027745855}
        tangentMode: 0
        weightedMode: 0
        inWeight: {x: 0.33333334, y: 0.33333334, z: 0.33333334}
        outWeight: {x: 0.33333334, y: 0.33333334, z: 0.33333334}
      - serializedVersion: 3
        time: 0.8000002
        value: {x: -0.121000014, y: -0.025400003, z: 0.19300961}
        inSlope: {x: -1.2085583e-15, y: 2.0959256, z: -2.0812252}
        outSlope: {x: -2.8199692e-15, y: 2.096111, z: -2.0814087}
        tangentMode: 0
        weightedMode: 0
        inWeight: {x: 0.33333334, y: 0.33333334, z: 0.33333334}
        outWeight: {x: 0.33333334, y: 0.33333334, z: 0.33333334}
      - serializedVersion: 3
        time: 0.8333335
        value: {x: -0.121000014, y: 0.114327066, z: 0.054262687}
        inSlope: {x: -1.2085583e-15, y: 2.0957282, z: -2.0810266}
        outSlope: {x: -2.8199692e-15, y: 2.0958807, z: -2.0811815}
        tangentMode: 0
        weightedMode: 0
        inWeight: {x: 0.33333334, y: 0.33333334, z: 0.33333334}
        outWeight: {x: 0.33333334, y: 0.33333334, z: 0.33333334}
      - serializedVersion: 3
        time: 0.8666668
        value: {x: -0.121000014, y: 0.114327066, z: 0.054262687}
        inSlope: {x: -1.2085583e-15, y: -0.00004622144, z: 0.00004297768}
        outSlope: {x: -2.8199692e-15, y: 1.4099846e-15, z: 7.049923e-16}
        tangentMode: 0
        weightedMode: 0
        inWeight: {x: 0.33333334, y: 0.33333334, z: 0.33333334}
        outWeight: {x: 0.33333334, y: 0.33333334, z: 0.33333334}
      - serializedVersion: 3
        time: 1.3333335
        value: {x: -0.121, y: 0.11432706, z: 0.054262687}
        inSlope: {x: -1.2085583e-15, y: 6.0427913e-16, z: 3.0213956e-16}
        outSlope: {x: -1.2085583e-15, y: 6.0427913e-16, z: 3.0213956e-16}
        tangentMode: 0
        weightedMode: 0
        inWeight: {x: 0.33333334, y: 0.33333334, z: 0.33333334}
        outWeight: {x: 0.33333334, y: 0.33333334, z: 0.33333334}
      m_PreInfinity: 2
      m_PostInfinity: 2
      m_RotationOrder: 4
    path: Leg_L
  m_ScaleCurves:
  - curve:
      serializedVersion: 2
      m_Curve:
      - serializedVersion: 3
        time: 0.00000047683716
        value: {x: 1.0870749, y: 1.0870749, z: 1.0870749}
        inSlope: {x: 0, y: 0, z: 0}
        outSlope: {x: 0, y: 0, z: 0}
        tangentMode: 0
        weightedMode: 0
        inWeight: {x: 0.33333334, y: 0.33333334, z: 0.33333334}
        outWeight: {x: 0.33333334, y: 0.33333334, z: 0.33333334}
      - serializedVersion: 3
        time: 0.7666669
        value: {x: 1.0870749, y: 1.0870749, z: 1.0870749}
        inSlope: {x: 0, y: 0, z: 0}
        outSlope: {x: 0, y: 0, z: 0}
        tangentMode: 0
        weightedMode: 0
        inWeight: {x: 0.33333334, y: 0.33333334, z: 0.33333334}
        outWeight: {x: 0.33333334, y: 0.33333334, z: 0.33333334}
      - serializedVersion: 3
        time: 0.8000002
        value: {x: 1.0870749, y: 1.0870749, z: 1.0870749}
        inSlope: {x: 0.15281235, y: 0.15281235, z: -2.6357224}
        outSlope: {x: 0.15281235, y: 0.15281235, z: -2.6357224}
        tangentMode: 0
        weightedMode: 0
        inWeight: {x: 0.33333334, y: 0.33333334, z: 0.33333334}
        outWeight: {x: 0.33333334, y: 0.33333334, z: 0.33333334}
      - serializedVersion: 3
        time: 0.83333397
        value: {x: 1.0972625, y: 1.0972625, z: 0.9113577}
        inSlope: {x: 0.15281235, y: 0.15281235, z: -2.6357036}
        outSlope: {x: 0.15281235, y: 0.15281235, z: -2.6357036}
        tangentMode: 0
        weightedMode: 0
        inWeight: {x: 0.33333334, y: 0.33333334, z: 0.33333334}
        outWeight: {x: 0.33333334, y: 0.33333334, z: 0.33333334}
      - serializedVersion: 3
        time: 0.8666673
        value: {x: 1.0972625, y: 1.0972625, z: 0.91135895}
        inSlope: {x: 0, y: 0, z: 0.000018775481}
        outSlope: {x: 0, y: 0, z: 0.000018775481}
        tangentMode: 0
        weightedMode: 0
        inWeight: {x: 0.33333334, y: 0.33333334, z: 0.33333334}
        outWeight: {x: 0.33333334, y: 0.33333334, z: 0.33333334}
      - serializedVersion: 3
        time: 0.9000006
        value: {x: 1.0972625, y: 1.0972625, z: 0.91135895}
        inSlope: {x: -0.000010728846, y: -0.000010728846, z: 0.000008046634}
        outSlope: {x: -0.000010728846, y: -0.000010728846, z: 0.000008046634}
        tangentMode: 0
        weightedMode: 0
        inWeight: {x: 0.33333334, y: 0.33333334, z: 0.33333334}
        outWeight: {x: 0.33333334, y: 0.33333334, z: 0.33333334}
      - serializedVersion: 3
        time: 0.9333339
        value: {x: 1.0972618, y: 1.0972618, z: 0.9113595}
        inSlope: {x: -1.4589479, y: -1.4589479, z: 1.3296224}
        outSlope: {x: -1.4589479, y: -1.4589479, z: 1.3296224}
        tangentMode: 0
        weightedMode: 0
        inWeight: {x: 0.33333334, y: 0.33333334, z: 0.33333334}
        outWeight: {x: 0.33333334, y: 0.33333334, z: 0.33333334}
      - serializedVersion: 3
        time: 0.9666672
        value: {x: 0.9999994, y: 0.9999994, z: 1.0000004}
        inSlope: {x: -1.4589291, y: -1.4589291, z: 1.329608}
        outSlope: {x: -1.4589291, y: -1.4589291, z: 1.329608}
        tangentMode: 0
        weightedMode: 0
        inWeight: {x: 0.33333334, y: 0.33333334, z: 0.33333334}
        outWeight: {x: 0.33333334, y: 0.33333334, z: 0.33333334}
      - serializedVersion: 3
        time: 1.0000005
        value: {x: 0.99999994, y: 0.99999994, z: 0.99999994}
        inSlope: {x: 0.000008046634, y: 0.000008046634, z: -0.0000062584936}
        outSlope: {x: 0.000008046634, y: 0.000008046634, z: -0.0000062584936}
        tangentMode: 0
        weightedMode: 0
        inWeight: {x: 0.33333334, y: 0.33333334, z: 0.33333334}
        outWeight: {x: 0.33333334, y: 0.33333334, z: 0.33333334}
      - serializedVersion: 3
        time: 1.333334
        value: {x: 0.99999994, y: 0.99999994, z: 0.99999994}
        inSlope: {x: 0, y: 0, z: 0}
        outSlope: {x: 0, y: 0, z: 0}
        tangentMode: 0
        weightedMode: 0
        inWeight: {x: 0.33333334, y: 0.33333334, z: 0.33333334}
        outWeight: {x: 0.33333334, y: 0.33333334, z: 0.33333334}
      m_PreInfinity: 2
      m_PostInfinity: 2
      m_RotationOrder: 4
    path: 
  - curve:
      serializedVersion: 2
      m_Curve:
      - serializedVersion: 3
        time: 0.00000047683716
        value: {x: 1, y: 1, z: 1}
        inSlope: {x: 0, y: 0, z: 0}
        outSlope: {x: 0, y: 0, z: 0}
        tangentMode: 0
        weightedMode: 0
        inWeight: {x: 0.33333334, y: 0.33333334, z: 0.33333334}
        outWeight: {x: 0.33333334, y: 0.33333334, z: 0.33333334}
      - serializedVersion: 3
        time: 1.333334
        value: {x: 1, y: 1, z: 1}
        inSlope: {x: 0, y: 0, z: 0}
        outSlope: {x: 0, y: 0, z: 0}
        tangentMode: 0
        weightedMode: 0
        inWeight: {x: 0.33333334, y: 0.33333334, z: 0.33333334}
        outWeight: {x: 0.33333334, y: 0.33333334, z: 0.33333334}
      m_PreInfinity: 2
      m_PostInfinity: 2
      m_RotationOrder: 4
    path: Body
  - curve:
      serializedVersion: 2
      m_Curve:
      - serializedVersion: 3
        time: 0.00000047683716
        value: {x: 1.0000001, y: 1, z: 1.0000001}
        inSlope: {x: 0, y: 0, z: 0}
        outSlope: {x: 0, y: 0, z: 0}
        tangentMode: 0
        weightedMode: 0
        inWeight: {x: 0.33333334, y: 0.33333334, z: 0.33333334}
        outWeight: {x: 0.33333334, y: 0.33333334, z: 0.33333334}
      - serializedVersion: 3
        time: 1.333334
        value: {x: 1.0000001, y: 1, z: 1.0000001}
        inSlope: {x: 0, y: 0, z: 0}
        outSlope: {x: 0, y: 0, z: 0}
        tangentMode: 0
        weightedMode: 0
        inWeight: {x: 0.33333334, y: 0.33333334, z: 0.33333334}
        outWeight: {x: 0.33333334, y: 0.33333334, z: 0.33333334}
      m_PreInfinity: 2
      m_PostInfinity: 2
      m_RotationOrder: 4
    path: Body/Arm_L
  - curve:
      serializedVersion: 2
      m_Curve:
      - serializedVersion: 3
        time: 0.00000047683716
        value: {x: 1, y: 1, z: 1}
        inSlope: {x: 0, y: 0, z: 0}
        outSlope: {x: 0, y: 0, z: 0}
        tangentMode: 0
        weightedMode: 0
        inWeight: {x: 0.33333334, y: 0.33333334, z: 0.33333334}
        outWeight: {x: 0.33333334, y: 0.33333334, z: 0.33333334}
      - serializedVersion: 3
        time: 1.333334
        value: {x: 1, y: 1, z: 1}
        inSlope: {x: 0, y: 0, z: 0}
        outSlope: {x: 0, y: 0, z: 0}
        tangentMode: 0
        weightedMode: 0
        inWeight: {x: 0.33333334, y: 0.33333334, z: 0.33333334}
        outWeight: {x: 0.33333334, y: 0.33333334, z: 0.33333334}
      m_PreInfinity: 2
      m_PostInfinity: 2
      m_RotationOrder: 4
    path: Body/Head
  - curve:
      serializedVersion: 2
      m_Curve:
      - serializedVersion: 3
        time: 0.00000047683716
        value: {x: 1.0000001, y: 1, z: 1.0000001}
        inSlope: {x: 0, y: 0, z: 0}
        outSlope: {x: 0, y: 0, z: 0}
        tangentMode: 0
        weightedMode: 0
        inWeight: {x: 0.33333334, y: 0.33333334, z: 0.33333334}
        outWeight: {x: 0.33333334, y: 0.33333334, z: 0.33333334}
      - serializedVersion: 3
        time: 1.333334
        value: {x: 1.0000001, y: 1, z: 1.0000001}
        inSlope: {x: 0, y: 0, z: 0}
        outSlope: {x: 0, y: 0, z: 0}
        tangentMode: 0
        weightedMode: 0
        inWeight: {x: 0.33333334, y: 0.33333334, z: 0.33333334}
        outWeight: {x: 0.33333334, y: 0.33333334, z: 0.33333334}
      m_PreInfinity: 2
      m_PostInfinity: 2
      m_RotationOrder: 4
    path: Body/Arm_R
  - curve:
      serializedVersion: 2
      m_Curve:
      - serializedVersion: 3
        time: 0.00000047683716
        value: {x: 1.0000001, y: 1.0000001, z: 1.0000001}
        inSlope: {x: 0, y: 0, z: 0}
        outSlope: {x: 0, y: 0, z: 0}
        tangentMode: 0
        weightedMode: 0
        inWeight: {x: 0.33333334, y: 0.33333334, z: 0.33333334}
        outWeight: {x: 0.33333334, y: 0.33333334, z: 0.33333334}
      - serializedVersion: 3
        time: 1.333334
        value: {x: 1.0000001, y: 1.0000001, z: 1.0000001}
        inSlope: {x: 0, y: 0, z: 0}
        outSlope: {x: 0, y: 0, z: 0}
        tangentMode: 0
        weightedMode: 0
        inWeight: {x: 0.33333334, y: 0.33333334, z: 0.33333334}
        outWeight: {x: 0.33333334, y: 0.33333334, z: 0.33333334}
      m_PreInfinity: 2
      m_PostInfinity: 2
      m_RotationOrder: 4
    path: Body/Arm_R/Pickaxe
  - curve:
      serializedVersion: 2
      m_Curve:
      - serializedVersion: 3
        time: 0.00000047683716
        value: {x: 1, y: 1, z: 1}
        inSlope: {x: 0, y: 0, z: 0}
        outSlope: {x: 0, y: 0, z: 0}
        tangentMode: 0
        weightedMode: 0
        inWeight: {x: 0.33333334, y: 0.33333334, z: 0.33333334}
        outWeight: {x: 0.33333334, y: 0.33333334, z: 0.33333334}
      - serializedVersion: 3
        time: 1.333334
        value: {x: 1, y: 1, z: 1}
        inSlope: {x: 0, y: 0, z: 0}
        outSlope: {x: 0, y: 0, z: 0}
        tangentMode: 0
        weightedMode: 0
        inWeight: {x: 0.33333334, y: 0.33333334, z: 0.33333334}
        outWeight: {x: 0.33333334, y: 0.33333334, z: 0.33333334}
      m_PreInfinity: 2
      m_PostInfinity: 2
      m_RotationOrder: 4
    path: Leg_R
  - curve:
      serializedVersion: 2
      m_Curve:
      - serializedVersion: 3
        time: 0.00000047683716
        value: {x: 1, y: 1, z: 1}
        inSlope: {x: 0, y: 0, z: 0}
        outSlope: {x: 0, y: 0, z: 0}
        tangentMode: 0
        weightedMode: 0
        inWeight: {x: 0.33333334, y: 0.33333334, z: 0.33333334}
        outWeight: {x: 0.33333334, y: 0.33333334, z: 0.33333334}
      - serializedVersion: 3
        time: 1.333334
        value: {x: 1, y: 1, z: 1}
        inSlope: {x: 0, y: 0, z: 0}
        outSlope: {x: 0, y: 0, z: 0}
        tangentMode: 0
        weightedMode: 0
        inWeight: {x: 0.33333334, y: 0.33333334, z: 0.33333334}
        outWeight: {x: 0.33333334, y: 0.33333334, z: 0.33333334}
      m_PreInfinity: 2
      m_PostInfinity: 2
      m_RotationOrder: 4
    path: Leg_L
  m_FloatCurves: []
  m_PPtrCurves: []
  m_SampleRate: 30
  m_WrapMode: 0
  m_Bounds:
    m_Center: {x: 0, y: 0, z: 0}
    m_Extent: {x: 0, y: 0, z: 0}
  m_ClipBindingConstant:
    genericBindings: []
    pptrCurveMapping: []
  m_AnimationClipSettings:
    serializedVersion: 2
    m_AdditiveReferencePoseClip: {fileID: 0}
    m_AdditiveReferencePoseTime: 0
    m_StartTime: 0
    m_StopTime: 1.333334
    m_OrientationOffsetY: 0
    m_Level: 0
    m_CycleOffset: 0
    m_HasAdditiveReferencePose: 0
    m_LoopTime: 0
    m_LoopBlend: 0
    m_LoopBlendOrientation: 0
    m_LoopBlendPositionY: 0
    m_LoopBlendPositionXZ: 0
    m_KeepOriginalOrientation: 0
    m_KeepOriginalPositionY: 1
    m_KeepOriginalPositionXZ: 0
    m_HeightFromFeet: 0
    m_Mirror: 0
  m_EditorCurves: []
  m_EulerEditorCurves: []
  m_HasGenericRootTransform: 1
  m_HasMotionFloatCurves: 0
  m_Events: []
