# MagicaVoxel @ Ephtracy

# group
o 

# material
mtllib Trail2.mtl
usemtl palette

# normals
vn -1 0 0
vn 1 0 0
vn 0 0 1
vn 0 0 -1
vn 0 -1 0
vn 0 1 0

# texcoords
vt 0.271484 0.5
vt 0.306641 0.5
vt 0.974609 0.5

# verts
v 0 2.2 -0.3
v 0 2.2 -0.5
v 0 2.2 -1.1
v 0 2.2 -1.3
v 0 2.3 -0.3
v 0 2.3 -0.5
v 0 2.3 -1.1
v 0 2.3 -1.3
v 0.2 2 0
v 0.2 2 -1.6
v 0.2 2.2 0
v 0.2 2.2 -0.3
v 0.2 2.2 -0.5
v 0.2 2.2 -1.1
v 0.2 2.2 -1.3
v 0.2 2.2 -1.6
v 1 2 0
v 1 2 -1.6
v 1 2.1 -0.5
v 1 2.1 -0.6
v 1 2.2 0
v 1 2.2 -0.3
v 1 2.2 -0.5
v 1 2.2 -0.6
v 1 2.2 -1.1
v 1 2.2 -1.3
v 1 2.2 -1.6
v 0.6 2 0
v 0.6 2 -1.6
v 0.6 2.1 0
v 0.6 2.1 -0.2
v 0.6 2.1 -1.4
v 0.6 2.1 -1.5
v 0.6 2.2 0
v 0.6 2.2 -0.2
v 0.6 2.2 -0.3
v 0.6 2.2 -0.5
v 0.6 2.2 -1.1
v 0.6 2.2 -1.3
v 0.6 2.2 -1.4
v 0.6 2.2 -1.5
v 0.6 2.2 -1.6
v 1.4 2 0
v 1.4 2 -1.6
v 1.4 2.1 -0.6
v 1.4 2.1 -0.8
v 1.4 2.1 -1.3
v 1.4 2.1 -1.4
v 1.4 2.2 0
v 1.4 2.2 -0.3
v 1.4 2.2 -0.5
v 1.4 2.2 -0.6
v 1.4 2.2 -0.8
v 1.4 2.2 -1.1
v 1.4 2.2 -1.3
v 1.4 2.2 -1.4
v 1.4 2.2 -1.6
v 1.6 2.2 -0.3
v 1.6 2.2 -0.5
v 1.6 2.2 -1.1
v 1.6 2.2 -1.3
v 1.6 2.3 -0.3
v 1.6 2.3 -0.5
v 1.6 2.3 -1.1
v 1.6 2.3 -1.3
v 0.2 2 0
v 0.2 2.2 0
v 0.5 2.1 0
v 0.5 2.2 0
v 0.6 2 0
v 0.6 2.1 0
v 0.6 2.2 0
v 1 2 0
v 1 2.2 0
v 1.4 2 0
v 1.4 2.2 0
v 0 2.2 -0.3
v 0 2.3 -0.3
v 0.2 2.2 -0.3
v 0.3 2.2 -0.3
v 0.4 2.2 -0.3
v 0.6 2.2 -0.3
v 1 2.2 -0.3
v 1.1 2.2 -0.3
v 1.2 2.2 -0.3
v 1.4 2.2 -0.3
v 1.6 2.2 -0.3
v 1.6 2.3 -0.3
v 0 2.2 -1.1
v 0 2.3 -1.1
v 0.2 2.2 -1.1
v 0.6 2.2 -1.1
v 1 2.2 -1.1
v 1.1 2.2 -1.1
v 1.2 2.2 -1.1
v 1.4 2.2 -1.1
v 1.6 2.2 -1.1
v 1.6 2.3 -1.1
v 0 2.2 -0.5
v 0 2.3 -0.5
v 0.2 2.2 -0.5
v 0.6 2.2 -0.5
v 1 2.2 -0.5
v 1.1 2.2 -0.5
v 1.4 2.2 -0.5
v 1.6 2.2 -0.5
v 1.6 2.3 -0.5
v 0 2.2 -1.3
v 0 2.3 -1.3
v 0.2 2.2 -1.3
v 0.3 2.2 -1.3
v 0.4 2.2 -1.3
v 0.6 2.2 -1.3
v 1 2.2 -1.3
v 1.3 2.2 -1.3
v 1.4 2.2 -1.3
v 1.6 2.2 -1.3
v 1.6 2.3 -1.3
v 0.2 2 -1.6
v 0.2 2.2 -1.6
v 0.6 2 -1.6
v 0.6 2.2 -1.6
v 1 2 -1.6
v 1 2.2 -1.6
v 1.1 2.1 -1.6
v 1.1 2.2 -1.6
v 1.2 2.1 -1.6
v 1.2 2.2 -1.6
v 1.4 2 -1.6
v 1.4 2.2 -1.6
v 0.2 2 0
v 0.6 2 0
v 1 2 0
v 1.4 2 0
v 0.2 2 -1.6
v 0.6 2 -1.6
v 1 2 -1.6
v 1.4 2 -1.6
v 0 2.2 -0.3
v 0.2 2.2 -0.3
v 0.6 2.2 -0.3
v 1 2.2 -0.3
v 1.4 2.2 -0.3
v 1.6 2.2 -0.3
v 0 2.2 -0.5
v 0.2 2.2 -0.5
v 0.6 2.2 -0.5
v 1 2.2 -0.5
v 1.4 2.2 -0.5
v 1.6 2.2 -0.5
v 0 2.2 -1.1
v 0.2 2.2 -1.1
v 0.6 2.2 -1.1
v 1 2.2 -1.1
v 1.4 2.2 -1.1
v 1.6 2.2 -1.1
v 0 2.2 -1.3
v 0.2 2.2 -1.3
v 0.6 2.2 -1.3
v 1 2.2 -1.3
v 1.4 2.2 -1.3
v 1.6 2.2 -1.3
v 0.2 2.2 0
v 0.5 2.2 0
v 0.6 2.2 0
v 1 2.2 0
v 1.4 2.2 0
v 0.3 2.2 -0.1
v 0.4 2.2 -0.1
v 1.1 2.2 -0.1
v 1.2 2.2 -0.1
v 0.5 2.2 -0.2
v 0.6 2.2 -0.2
v 0.2 2.2 -0.3
v 0.3 2.2 -0.3
v 0.4 2.2 -0.3
v 0.6 2.2 -0.3
v 1 2.2 -0.3
v 1.1 2.2 -0.3
v 1.2 2.2 -0.3
v 1.4 2.2 -0.3
v 0.2 2.2 -0.5
v 0.6 2.2 -0.5
v 1 2.2 -0.5
v 1.1 2.2 -0.5
v 1.4 2.2 -0.5
v 0.4 2.2 -0.6
v 0.5 2.2 -0.6
v 1 2.2 -0.6
v 1.1 2.2 -0.6
v 1.3 2.2 -0.6
v 1.4 2.2 -0.6
v 0.4 2.2 -0.8
v 0.5 2.2 -0.8
v 1.3 2.2 -0.8
v 1.4 2.2 -0.8
v 0.4 2.2 -0.9
v 0.5 2.2 -0.9
v 1.1 2.2 -0.9
v 1.2 2.2 -0.9
v 0.4 2.2 -1
v 0.5 2.2 -1
v 0.2 2.2 -1.1
v 0.6 2.2 -1.1
v 1 2.2 -1.1
v 1.1 2.2 -1.1
v 1.2 2.2 -1.1
v 1.4 2.2 -1.1
v 0.2 2.2 -1.3
v 0.3 2.2 -1.3
v 0.4 2.2 -1.3
v 0.6 2.2 -1.3
v 1 2.2 -1.3
v 1.3 2.2 -1.3
v 1.4 2.2 -1.3
v 0.5 2.2 -1.4
v 0.6 2.2 -1.4
v 1.1 2.2 -1.4
v 1.2 2.2 -1.4
v 1.3 2.2 -1.4
v 1.4 2.2 -1.4
v 0.3 2.2 -1.5
v 0.4 2.2 -1.5
v 0.5 2.2 -1.5
v 0.6 2.2 -1.5
v 0.2 2.2 -1.6
v 0.6 2.2 -1.6
v 1 2.2 -1.6
v 1.1 2.2 -1.6
v 1.2 2.2 -1.6
v 1.4 2.2 -1.6
v 0 2.3 -0.3
v 1.6 2.3 -0.3
v 0 2.3 -0.5
v 1.6 2.3 -0.5
v 0 2.3 -1.1
v 1.6 2.3 -1.1
v 0 2.3 -1.3
v 1.6 2.3 -1.3

# faces
f 5/3/1 2/3/1 1/3/1
f 6/3/1 2/3/1 5/3/1
f 7/3/1 4/3/1 3/3/1
f 8/3/1 4/3/1 7/3/1
f 11/2/1 10/2/1 9/2/1
f 12/2/1 10/2/1 11/2/1
f 13/2/1 10/2/1 12/2/1
f 14/2/1 10/2/1 13/2/1
f 15/2/1 10/2/1 14/2/1
f 16/2/1 10/2/1 15/2/1
f 19/2/1 18/2/1 17/2/1
f 20/2/1 18/2/1 19/2/1
f 21/2/1 19/2/1 17/2/1
f 22/2/1 19/2/1 21/2/1
f 23/1/1 20/1/1 19/1/1
f 23/2/1 19/2/1 22/2/1
f 24/2/1 18/2/1 20/2/1
f 24/1/1 20/1/1 23/1/1
f 25/2/1 18/2/1 24/2/1
f 26/2/1 18/2/1 25/2/1
f 27/2/1 18/2/1 26/2/1
f 28/2/2 29/2/2 30/2/2
f 30/2/2 29/2/2 31/2/2
f 31/2/2 29/2/2 32/2/2
f 32/2/2 29/2/2 33/2/2
f 30/1/2 31/1/2 34/1/2
f 31/2/2 32/2/2 35/2/2
f 34/1/2 31/1/2 35/1/2
f 35/2/2 32/2/2 36/2/2
f 36/2/2 32/2/2 37/2/2
f 37/2/2 32/2/2 38/2/2
f 38/2/2 32/2/2 39/2/2
f 32/1/2 33/1/2 40/1/2
f 39/2/2 32/2/2 40/2/2
f 33/2/2 29/2/2 41/2/2
f 40/1/2 33/1/2 41/1/2
f 41/2/2 29/2/2 42/2/2
f 43/2/2 44/2/2 45/2/2
f 45/2/2 44/2/2 46/2/2
f 46/2/2 44/2/2 47/2/2
f 47/2/2 44/2/2 48/2/2
f 43/2/2 45/2/2 49/2/2
f 49/2/2 45/2/2 50/2/2
f 50/2/2 45/2/2 51/2/2
f 45/1/2 46/1/2 52/1/2
f 51/2/2 45/2/2 52/2/2
f 46/2/2 47/2/2 53/2/2
f 52/1/2 46/1/2 53/1/2
f 53/2/2 47/2/2 54/2/2
f 47/1/2 48/1/2 55/1/2
f 54/2/2 47/2/2 55/2/2
f 48/2/2 44/2/2 56/2/2
f 55/1/2 48/1/2 56/1/2
f 56/2/2 44/2/2 57/2/2
f 58/3/2 59/3/2 62/3/2
f 62/3/2 59/3/2 63/3/2
f 60/3/2 61/3/2 64/3/2
f 64/3/2 61/3/2 65/3/2
f 68/2/3 67/2/3 66/2/3
f 69/2/3 67/2/3 68/2/3
f 70/2/3 68/2/3 66/2/3
f 71/1/3 69/1/3 68/1/3
f 71/2/3 68/2/3 70/2/3
f 72/1/3 69/1/3 71/1/3
f 75/2/3 74/2/3 73/2/3
f 76/2/3 74/2/3 75/2/3
f 79/3/3 78/3/3 77/3/3
f 80/3/3 78/3/3 79/3/3
f 81/3/3 78/3/3 80/3/3
f 82/3/3 78/3/3 81/3/3
f 83/3/3 78/3/3 82/3/3
f 84/3/3 78/3/3 83/3/3
f 85/3/3 78/3/3 84/3/3
f 86/3/3 78/3/3 85/3/3
f 87/3/3 78/3/3 86/3/3
f 88/3/3 78/3/3 87/3/3
f 91/3/3 90/3/3 89/3/3
f 92/3/3 90/3/3 91/3/3
f 93/3/3 90/3/3 92/3/3
f 94/3/3 90/3/3 93/3/3
f 95/3/3 90/3/3 94/3/3
f 96/3/3 90/3/3 95/3/3
f 97/3/3 90/3/3 96/3/3
f 98/3/3 90/3/3 97/3/3
f 99/3/4 100/3/4 101/3/4
f 101/3/4 100/3/4 102/3/4
f 102/3/4 100/3/4 103/3/4
f 103/3/4 100/3/4 104/3/4
f 104/3/4 100/3/4 105/3/4
f 105/3/4 100/3/4 106/3/4
f 106/3/4 100/3/4 107/3/4
f 108/3/4 109/3/4 110/3/4
f 110/3/4 109/3/4 111/3/4
f 111/3/4 109/3/4 112/3/4
f 112/3/4 109/3/4 113/3/4
f 113/3/4 109/3/4 114/3/4
f 114/3/4 109/3/4 115/3/4
f 115/3/4 109/3/4 116/3/4
f 116/3/4 109/3/4 117/3/4
f 117/3/4 109/3/4 118/3/4
f 119/2/4 120/2/4 121/2/4
f 121/2/4 120/2/4 122/2/4
f 123/2/4 124/2/4 125/2/4
f 125/2/4 124/2/4 126/2/4
f 123/2/4 125/2/4 127/2/4
f 125/1/4 126/1/4 127/1/4
f 127/1/4 126/1/4 128/1/4
f 123/2/4 127/2/4 129/2/4
f 127/2/4 128/2/4 129/2/4
f 129/2/4 128/2/4 130/2/4
f 135/2/5 132/2/5 131/2/5
f 136/2/5 132/2/5 135/2/5
f 137/2/5 134/2/5 133/2/5
f 138/2/5 134/2/5 137/2/5
f 145/3/5 140/3/5 139/3/5
f 146/3/5 140/3/5 145/3/5
f 147/3/5 142/3/5 141/3/5
f 148/3/5 142/3/5 147/3/5
f 149/3/5 144/3/5 143/3/5
f 150/3/5 144/3/5 149/3/5
f 157/3/5 152/3/5 151/3/5
f 158/3/5 152/3/5 157/3/5
f 159/3/5 154/3/5 153/3/5
f 160/3/5 154/3/5 159/3/5
f 161/3/5 156/3/5 155/3/5
f 162/3/5 156/3/5 161/3/5
f 163/2/6 164/2/6 168/2/6
f 168/2/6 164/2/6 169/2/6
f 166/2/6 167/2/6 170/2/6
f 170/2/6 167/2/6 171/2/6
f 169/2/6 164/2/6 172/2/6
f 164/1/6 165/1/6 172/1/6
f 172/1/6 165/1/6 173/1/6
f 163/2/6 168/2/6 174/2/6
f 168/1/6 169/1/6 175/1/6
f 174/2/6 168/2/6 175/2/6
f 169/2/6 172/2/6 176/2/6
f 175/1/6 169/1/6 176/1/6
f 172/2/6 173/2/6 176/2/6
f 176/2/6 173/2/6 177/2/6
f 166/2/6 170/2/6 178/2/6
f 170/1/6 171/1/6 179/1/6
f 178/2/6 170/2/6 179/2/6
f 171/2/6 167/2/6 180/2/6
f 179/1/6 171/1/6 180/1/6
f 180/2/6 167/2/6 181/2/6
f 182/2/6 183/2/6 187/2/6
f 187/2/6 183/2/6 188/2/6
f 184/1/6 185/1/6 189/1/6
f 185/2/6 186/2/6 190/2/6
f 189/1/6 185/1/6 190/1/6
f 190/2/6 186/2/6 191/2/6
f 191/2/6 186/2/6 192/2/6
f 182/2/6 187/2/6 193/2/6
f 187/1/6 188/1/6 193/1/6
f 188/2/6 183/2/6 194/2/6
f 193/1/6 188/1/6 194/1/6
f 191/1/6 192/1/6 195/1/6
f 189/2/6 190/2/6 195/2/6
f 190/2/6 191/2/6 195/2/6
f 195/1/6 192/1/6 196/1/6
f 182/2/6 193/2/6 197/2/6
f 193/2/6 194/2/6 197/2/6
f 194/2/6 183/2/6 198/2/6
f 197/2/6 194/2/6 198/2/6
f 195/2/6 196/2/6 199/2/6
f 189/2/6 195/2/6 199/2/6
f 199/2/6 196/2/6 200/2/6
f 182/2/6 197/2/6 201/2/6
f 197/1/6 198/1/6 201/1/6
f 198/2/6 183/2/6 202/2/6
f 201/1/6 198/1/6 202/1/6
f 182/2/6 201/2/6 203/2/6
f 201/2/6 202/2/6 203/2/6
f 202/2/6 183/2/6 204/2/6
f 203/2/6 202/2/6 204/2/6
f 189/2/6 199/2/6 205/2/6
f 199/1/6 200/1/6 206/1/6
f 205/2/6 199/2/6 206/2/6
f 200/2/6 196/2/6 207/2/6
f 206/1/6 200/1/6 207/1/6
f 207/2/6 196/2/6 208/2/6
f 211/2/6 212/2/6 216/2/6
f 216/2/6 212/2/6 217/2/6
f 213/2/6 214/2/6 218/2/6
f 218/2/6 214/2/6 219/2/6
f 214/1/6 215/1/6 220/1/6
f 219/2/6 214/2/6 220/2/6
f 220/1/6 215/1/6 221/1/6
f 209/2/6 210/2/6 222/2/6
f 210/1/6 211/1/6 222/1/6
f 211/2/6 216/2/6 223/2/6
f 222/1/6 211/1/6 223/1/6
f 216/1/6 217/1/6 224/1/6
f 223/2/6 216/2/6 224/2/6
f 224/1/6 217/1/6 225/1/6
f 222/2/6 223/2/6 226/2/6
f 209/2/6 222/2/6 226/2/6
f 224/2/6 225/2/6 226/2/6
f 223/2/6 224/2/6 226/2/6
f 226/2/6 225/2/6 227/2/6
f 213/2/6 218/2/6 228/2/6
f 218/1/6 219/1/6 229/1/6
f 228/2/6 218/2/6 229/2/6
f 220/2/6 221/2/6 230/2/6
f 229/1/6 219/1/6 230/1/6
f 219/2/6 220/2/6 230/2/6
f 230/2/6 221/2/6 231/2/6
f 232/3/6 233/3/6 234/3/6
f 234/3/6 233/3/6 235/3/6
f 236/3/6 237/3/6 238/3/6
f 238/3/6 237/3/6 239/3/6
