%YAML 1.1
%TAG !u! tag:unity3d.com,2011:
--- !u!1 &3760887398050276579
GameObject:
  m_ObjectHideFlags: 0
  m_CorrespondingSourceObject: {fileID: 0}
  m_PrefabInstance: {fileID: 0}
  m_PrefabAsset: {fileID: 0}
  serializedVersion: 6
  m_Component:
  - component: {fileID: 9027582291165721872}
  - component: {fileID: 4853967373752358319}
  m_Layer: 11
  m_Name: EndStraightTrail
  m_TagString: Trail
  m_Icon: {fileID: 0}
  m_NavMeshLayer: 0
  m_StaticEditorFlags: 0
  m_IsActive: 1
--- !u!4 &9027582291165721872
Transform:
  m_ObjectHideFlags: 0
  m_CorrespondingSourceObject: {fileID: 0}
  m_PrefabInstance: {fileID: 0}
  m_PrefabAsset: {fileID: 0}
  m_GameObject: {fileID: 3760887398050276579}
  m_LocalRotation: {x: -0, y: -0, z: -0, w: 1}
  m_LocalPosition: {x: 0, y: 3, z: 14}
  m_LocalScale: {x: 0.625, y: 0.625, z: 0.625}
  m_Children:
  - {fileID: 2419276373918524691}
  m_Father: {fileID: 0}
  m_RootOrder: 0
  m_LocalEulerAnglesHint: {x: 0, y: 0, z: 0}
--- !u!114 &4853967373752358319
MonoBehaviour:
  m_ObjectHideFlags: 0
  m_CorrespondingSourceObject: {fileID: 0}
  m_PrefabInstance: {fileID: 0}
  m_PrefabAsset: {fileID: 0}
  m_GameObject: {fileID: 3760887398050276579}
  m_Enabled: 1
  m_EditorHideFlags: 0
  m_Script: {fileID: 11500000, guid: cf346796b417f8f448b21ad57bd5f4c9, type: 3}
  m_Name: 
  m_EditorClassIdentifier: 
  trailType: 0
  inverseTrailType: 0
--- !u!1001 &2745021446279774968
PrefabInstance:
  m_ObjectHideFlags: 0
  serializedVersion: 2
  m_Modification:
    m_TransformParent: {fileID: 9027582291165721872}
    m_Modifications:
    - target: {fileID: -8679921383154817045, guid: 4e85f06b0f8432b4bbb1d20719721500,
        type: 3}
      propertyPath: m_LocalPosition.x
      value: 0
      objectReference: {fileID: 0}
    - target: {fileID: -8679921383154817045, guid: 4e85f06b0f8432b4bbb1d20719721500,
        type: 3}
      propertyPath: m_LocalPosition.y
      value: 0.15
      objectReference: {fileID: 0}
    - target: {fileID: -8679921383154817045, guid: 4e85f06b0f8432b4bbb1d20719721500,
        type: 3}
      propertyPath: m_LocalPosition.z
      value: 0
      objectReference: {fileID: 0}
    - target: {fileID: -8679921383154817045, guid: 4e85f06b0f8432b4bbb1d20719721500,
        type: 3}
      propertyPath: m_LocalRotation.x
      value: -0.5
      objectReference: {fileID: 0}
    - target: {fileID: -8679921383154817045, guid: 4e85f06b0f8432b4bbb1d20719721500,
        type: 3}
      propertyPath: m_LocalRotation.y
      value: 0.5
      objectReference: {fileID: 0}
    - target: {fileID: -8679921383154817045, guid: 4e85f06b0f8432b4bbb1d20719721500,
        type: 3}
      propertyPath: m_LocalRotation.z
      value: 0.5
      objectReference: {fileID: 0}
    - target: {fileID: -8679921383154817045, guid: 4e85f06b0f8432b4bbb1d20719721500,
        type: 3}
      propertyPath: m_LocalRotation.w
      value: 0.5
      objectReference: {fileID: 0}
    - target: {fileID: -8679921383154817045, guid: 4e85f06b0f8432b4bbb1d20719721500,
        type: 3}
      propertyPath: m_RootOrder
      value: 0
      objectReference: {fileID: 0}
    - target: {fileID: -8679921383154817045, guid: 4e85f06b0f8432b4bbb1d20719721500,
        type: 3}
      propertyPath: m_LocalEulerAnglesHint.x
      value: -90
      objectReference: {fileID: 0}
    - target: {fileID: -8679921383154817045, guid: 4e85f06b0f8432b4bbb1d20719721500,
        type: 3}
      propertyPath: m_LocalEulerAnglesHint.y
      value: 90
      objectReference: {fileID: 0}
    - target: {fileID: -8679921383154817045, guid: 4e85f06b0f8432b4bbb1d20719721500,
        type: 3}
      propertyPath: m_LocalEulerAnglesHint.z
      value: 0
      objectReference: {fileID: 0}
    - target: {fileID: -8679921383154817045, guid: 4e85f06b0f8432b4bbb1d20719721500,
        type: 3}
      propertyPath: m_LocalScale.x
      value: 100
      objectReference: {fileID: 0}
    - target: {fileID: -8679921383154817045, guid: 4e85f06b0f8432b4bbb1d20719721500,
        type: 3}
      propertyPath: m_LocalScale.y
      value: 100
      objectReference: {fileID: 0}
    - target: {fileID: -8679921383154817045, guid: 4e85f06b0f8432b4bbb1d20719721500,
        type: 3}
      propertyPath: m_LocalScale.z
      value: 100
      objectReference: {fileID: 0}
    - target: {fileID: 919132149155446097, guid: 4e85f06b0f8432b4bbb1d20719721500,
        type: 3}
      propertyPath: m_Name
      value: EndStraightTrail
      objectReference: {fileID: 0}
    m_RemovedComponents: []
  m_SourcePrefab: {fileID: 100100000, guid: 4e85f06b0f8432b4bbb1d20719721500, type: 3}
--- !u!4 &2419276373918524691 stripped
Transform:
  m_CorrespondingSourceObject: {fileID: -8679921383154817045, guid: 4e85f06b0f8432b4bbb1d20719721500,
    type: 3}
  m_PrefabInstance: {fileID: 2745021446279774968}
  m_PrefabAsset: {fileID: 0}
