%YAML 1.1
%TAG !u! tag:unity3d.com,2011:
--- !u!1 &1058694722967465377
GameObject:
  m_ObjectHideFlags: 0
  m_CorrespondingSourceObject: {fileID: 0}
  m_PrefabInstance: {fileID: 0}
  m_PrefabAsset: {fileID: 0}
  serializedVersion: 6
  m_Component:
  - component: {fileID: 1058694722967465376}
  m_Layer: 0
  m_Name: Trail
  m_TagString: Untagged
  m_Icon: {fileID: 0}
  m_NavMeshLayer: 0
  m_StaticEditorFlags: 0
  m_IsActive: 1
--- !u!4 &1058694722967465376
Transform:
  m_ObjectHideFlags: 0
  m_CorrespondingSourceObject: {fileID: 0}
  m_PrefabInstance: {fileID: 0}
  m_PrefabAsset: {fileID: 0}
  m_GameObject: {fileID: 1058694722967465377}
  m_LocalRotation: {x: -0, y: -0, z: -0, w: 1}
  m_LocalPosition: {x: 0, y: 0, z: 0}
  m_LocalScale: {x: 0.625, y: 0.625, z: 0.625}
  m_Children:
  - {fileID: 5461610650449985446}
  - {fileID: 4581155140689636968}
  m_Father: {fileID: 0}
  m_RootOrder: 0
  m_LocalEulerAnglesHint: {x: 0, y: 0, z: 0}
--- !u!1001 &1058694722296878268
PrefabInstance:
  m_ObjectHideFlags: 0
  serializedVersion: 2
  m_Modification:
    m_TransformParent: {fileID: 1058694722967465376}
    m_Modifications:
    - target: {fileID: -4216859302048453862, guid: fbb1f46e254b81748a6b7e91222a2d37,
        type: 3}
      propertyPath: m_LocalPosition.x
      value: 0
      objectReference: {fileID: 0}
    - target: {fileID: -4216859302048453862, guid: fbb1f46e254b81748a6b7e91222a2d37,
        type: 3}
      propertyPath: m_LocalPosition.y
      value: 0.15
      objectReference: {fileID: 0}
    - target: {fileID: -4216859302048453862, guid: fbb1f46e254b81748a6b7e91222a2d37,
        type: 3}
      propertyPath: m_LocalPosition.z
      value: 0
      objectReference: {fileID: 0}
    - target: {fileID: -4216859302048453862, guid: fbb1f46e254b81748a6b7e91222a2d37,
        type: 3}
      propertyPath: m_LocalRotation.x
      value: -0.5
      objectReference: {fileID: 0}
    - target: {fileID: -4216859302048453862, guid: fbb1f46e254b81748a6b7e91222a2d37,
        type: 3}
      propertyPath: m_LocalRotation.y
      value: 0.5
      objectReference: {fileID: 0}
    - target: {fileID: -4216859302048453862, guid: fbb1f46e254b81748a6b7e91222a2d37,
        type: 3}
      propertyPath: m_LocalRotation.z
      value: 0.5
      objectReference: {fileID: 0}
    - target: {fileID: -4216859302048453862, guid: fbb1f46e254b81748a6b7e91222a2d37,
        type: 3}
      propertyPath: m_LocalRotation.w
      value: 0.5
      objectReference: {fileID: 0}
    - target: {fileID: -4216859302048453862, guid: fbb1f46e254b81748a6b7e91222a2d37,
        type: 3}
      propertyPath: m_RootOrder
      value: 0
      objectReference: {fileID: 0}
    - target: {fileID: -4216859302048453862, guid: fbb1f46e254b81748a6b7e91222a2d37,
        type: 3}
      propertyPath: m_LocalEulerAnglesHint.x
      value: -90.00001
      objectReference: {fileID: 0}
    - target: {fileID: -4216859302048453862, guid: fbb1f46e254b81748a6b7e91222a2d37,
        type: 3}
      propertyPath: m_LocalEulerAnglesHint.y
      value: 90
      objectReference: {fileID: 0}
    - target: {fileID: -4216859302048453862, guid: fbb1f46e254b81748a6b7e91222a2d37,
        type: 3}
      propertyPath: m_LocalEulerAnglesHint.z
      value: 0
      objectReference: {fileID: 0}
    - target: {fileID: -4216859302048453862, guid: fbb1f46e254b81748a6b7e91222a2d37,
        type: 3}
      propertyPath: m_LocalScale.x
      value: 100
      objectReference: {fileID: 0}
    - target: {fileID: -4216859302048453862, guid: fbb1f46e254b81748a6b7e91222a2d37,
        type: 3}
      propertyPath: m_LocalScale.y
      value: 100
      objectReference: {fileID: 0}
    - target: {fileID: -4216859302048453862, guid: fbb1f46e254b81748a6b7e91222a2d37,
        type: 3}
      propertyPath: m_LocalScale.z
      value: 100
      objectReference: {fileID: 0}
    - target: {fileID: -927199367670048503, guid: fbb1f46e254b81748a6b7e91222a2d37,
        type: 3}
      propertyPath: m_Name
      value: TrailFBX
      objectReference: {fileID: 0}
    - target: {fileID: -927199367670048503, guid: fbb1f46e254b81748a6b7e91222a2d37,
        type: 3}
      propertyPath: m_IsActive
      value: 0
      objectReference: {fileID: 0}
    m_RemovedComponents: []
  m_SourcePrefab: {fileID: 100100000, guid: fbb1f46e254b81748a6b7e91222a2d37, type: 3}
--- !u!4 &5461610650449985446 stripped
Transform:
  m_CorrespondingSourceObject: {fileID: -4216859302048453862, guid: fbb1f46e254b81748a6b7e91222a2d37,
    type: 3}
  m_PrefabInstance: {fileID: 1058694722296878268}
  m_PrefabAsset: {fileID: 0}
--- !u!1001 &8856676776812414322
PrefabInstance:
  m_ObjectHideFlags: 0
  serializedVersion: 2
  m_Modification:
    m_TransformParent: {fileID: 1058694722967465376}
    m_Modifications:
    - target: {fileID: -4216859302048453862, guid: a2548377ee253c047bfad62f21ad09d4,
        type: 3}
      propertyPath: m_LocalPosition.x
      value: 0
      objectReference: {fileID: 0}
    - target: {fileID: -4216859302048453862, guid: a2548377ee253c047bfad62f21ad09d4,
        type: 3}
      propertyPath: m_LocalPosition.y
      value: 0.15
      objectReference: {fileID: 0}
    - target: {fileID: -4216859302048453862, guid: a2548377ee253c047bfad62f21ad09d4,
        type: 3}
      propertyPath: m_LocalPosition.z
      value: 0
      objectReference: {fileID: 0}
    - target: {fileID: -4216859302048453862, guid: a2548377ee253c047bfad62f21ad09d4,
        type: 3}
      propertyPath: m_LocalRotation.x
      value: -0.5
      objectReference: {fileID: 0}
    - target: {fileID: -4216859302048453862, guid: a2548377ee253c047bfad62f21ad09d4,
        type: 3}
      propertyPath: m_LocalRotation.y
      value: 0.5
      objectReference: {fileID: 0}
    - target: {fileID: -4216859302048453862, guid: a2548377ee253c047bfad62f21ad09d4,
        type: 3}
      propertyPath: m_LocalRotation.z
      value: 0.5
      objectReference: {fileID: 0}
    - target: {fileID: -4216859302048453862, guid: a2548377ee253c047bfad62f21ad09d4,
        type: 3}
      propertyPath: m_LocalRotation.w
      value: 0.5
      objectReference: {fileID: 0}
    - target: {fileID: -4216859302048453862, guid: a2548377ee253c047bfad62f21ad09d4,
        type: 3}
      propertyPath: m_RootOrder
      value: 1
      objectReference: {fileID: 0}
    - target: {fileID: -4216859302048453862, guid: a2548377ee253c047bfad62f21ad09d4,
        type: 3}
      propertyPath: m_LocalEulerAnglesHint.x
      value: -90.00001
      objectReference: {fileID: 0}
    - target: {fileID: -4216859302048453862, guid: a2548377ee253c047bfad62f21ad09d4,
        type: 3}
      propertyPath: m_LocalEulerAnglesHint.y
      value: 90
      objectReference: {fileID: 0}
    - target: {fileID: -4216859302048453862, guid: a2548377ee253c047bfad62f21ad09d4,
        type: 3}
      propertyPath: m_LocalEulerAnglesHint.z
      value: 0
      objectReference: {fileID: 0}
    - target: {fileID: -4216859302048453862, guid: a2548377ee253c047bfad62f21ad09d4,
        type: 3}
      propertyPath: m_LocalScale.x
      value: 100
      objectReference: {fileID: 0}
    - target: {fileID: -4216859302048453862, guid: a2548377ee253c047bfad62f21ad09d4,
        type: 3}
      propertyPath: m_LocalScale.y
      value: 100
      objectReference: {fileID: 0}
    - target: {fileID: -4216859302048453862, guid: a2548377ee253c047bfad62f21ad09d4,
        type: 3}
      propertyPath: m_LocalScale.z
      value: 100
      objectReference: {fileID: 0}
    - target: {fileID: -927199367670048503, guid: a2548377ee253c047bfad62f21ad09d4,
        type: 3}
      propertyPath: m_Name
      value: Trail2
      objectReference: {fileID: 0}
    - target: {fileID: -927199367670048503, guid: a2548377ee253c047bfad62f21ad09d4,
        type: 3}
      propertyPath: m_IsActive
      value: 1
      objectReference: {fileID: 0}
    m_RemovedComponents: []
  m_SourcePrefab: {fileID: 100100000, guid: a2548377ee253c047bfad62f21ad09d4, type: 3}
--- !u!4 &4581155140689636968 stripped
Transform:
  m_CorrespondingSourceObject: {fileID: -4216859302048453862, guid: a2548377ee253c047bfad62f21ad09d4,
    type: 3}
  m_PrefabInstance: {fileID: 8856676776812414322}
  m_PrefabAsset: {fileID: 0}
