%YAML 1.1
%TAG !u! tag:unity3d.com,2011:
--- !u!1 &6412438349304460305
GameObject:
  m_ObjectHideFlags: 0
  m_CorrespondingSourceObject: {fileID: 0}
  m_PrefabInstance: {fileID: 0}
  m_PrefabAsset: {fileID: 0}
  serializedVersion: 6
  m_Component:
  - component: {fileID: 274761078165227841}
  - component: {fileID: 1326240027590890269}
  m_Layer: 8
  m_Name: LavaHolder
  m_TagString: Untagged
  m_Icon: {fileID: 0}
  m_NavMeshLayer: 0
  m_StaticEditorFlags: 0
  m_IsActive: 1
--- !u!4 &274761078165227841
Transform:
  m_ObjectHideFlags: 0
  m_CorrespondingSourceObject: {fileID: 0}
  m_PrefabInstance: {fileID: 0}
  m_PrefabAsset: {fileID: 0}
  m_GameObject: {fileID: 6412438349304460305}
  m_LocalRotation: {x: -0, y: -0, z: -0, w: 1}
  m_LocalPosition: {x: 0, y: 0, z: 0}
  m_LocalScale: {x: 0.625, y: 0.625, z: 0.625}
  m_Children:
  - {fileID: 7921791839304008395}
  - {fileID: 5043969464854529727}
  m_Father: {fileID: 0}
  m_RootOrder: 0
  m_LocalEulerAnglesHint: {x: 0, y: 0, z: 0}
--- !u!114 &1326240027590890269
MonoBehaviour:
  m_ObjectHideFlags: 0
  m_CorrespondingSourceObject: {fileID: 0}
  m_PrefabInstance: {fileID: 0}
  m_PrefabAsset: {fileID: 0}
  m_GameObject: {fileID: 6412438349304460305}
  m_Enabled: 1
  m_EditorHideFlags: 0
  m_Script: {fileID: 11500000, guid: 2b9dc09ced0dcba4f9c73a9ee6f19696, type: 3}
  m_Name: 
  m_EditorClassIdentifier: 
  obstacleType: 10
--- !u!1001 &4788873401390276948
PrefabInstance:
  m_ObjectHideFlags: 0
  serializedVersion: 2
  m_Modification:
    m_TransformParent: {fileID: 274761078165227841}
    m_Modifications:
    - target: {fileID: -8679921383154817045, guid: d08f982a09c90f449be1ddb8d000c8b3,
        type: 3}
      propertyPath: m_RootOrder
      value: 1
      objectReference: {fileID: 0}
    - target: {fileID: -8679921383154817045, guid: d08f982a09c90f449be1ddb8d000c8b3,
        type: 3}
      propertyPath: m_LocalScale.x
      value: 1.6
      objectReference: {fileID: 0}
    - target: {fileID: -8679921383154817045, guid: d08f982a09c90f449be1ddb8d000c8b3,
        type: 3}
      propertyPath: m_LocalScale.y
      value: 1.6
      objectReference: {fileID: 0}
    - target: {fileID: -8679921383154817045, guid: d08f982a09c90f449be1ddb8d000c8b3,
        type: 3}
      propertyPath: m_LocalScale.z
      value: 1.6
      objectReference: {fileID: 0}
    - target: {fileID: -8679921383154817045, guid: d08f982a09c90f449be1ddb8d000c8b3,
        type: 3}
      propertyPath: m_LocalPosition.x
      value: 0
      objectReference: {fileID: 0}
    - target: {fileID: -8679921383154817045, guid: d08f982a09c90f449be1ddb8d000c8b3,
        type: 3}
      propertyPath: m_LocalPosition.y
      value: -0.25
      objectReference: {fileID: 0}
    - target: {fileID: -8679921383154817045, guid: d08f982a09c90f449be1ddb8d000c8b3,
        type: 3}
      propertyPath: m_LocalPosition.z
      value: 0
      objectReference: {fileID: 0}
    - target: {fileID: -8679921383154817045, guid: d08f982a09c90f449be1ddb8d000c8b3,
        type: 3}
      propertyPath: m_LocalRotation.w
      value: 0.7071068
      objectReference: {fileID: 0}
    - target: {fileID: -8679921383154817045, guid: d08f982a09c90f449be1ddb8d000c8b3,
        type: 3}
      propertyPath: m_LocalRotation.x
      value: -0.7071068
      objectReference: {fileID: 0}
    - target: {fileID: -8679921383154817045, guid: d08f982a09c90f449be1ddb8d000c8b3,
        type: 3}
      propertyPath: m_LocalRotation.y
      value: 0
      objectReference: {fileID: 0}
    - target: {fileID: -8679921383154817045, guid: d08f982a09c90f449be1ddb8d000c8b3,
        type: 3}
      propertyPath: m_LocalRotation.z
      value: 0
      objectReference: {fileID: 0}
    - target: {fileID: -8679921383154817045, guid: d08f982a09c90f449be1ddb8d000c8b3,
        type: 3}
      propertyPath: m_LocalEulerAnglesHint.x
      value: -90
      objectReference: {fileID: 0}
    - target: {fileID: -8679921383154817045, guid: d08f982a09c90f449be1ddb8d000c8b3,
        type: 3}
      propertyPath: m_LocalEulerAnglesHint.y
      value: 0
      objectReference: {fileID: 0}
    - target: {fileID: -8679921383154817045, guid: d08f982a09c90f449be1ddb8d000c8b3,
        type: 3}
      propertyPath: m_LocalEulerAnglesHint.z
      value: 0
      objectReference: {fileID: 0}
    - target: {fileID: -7511558181221131132, guid: d08f982a09c90f449be1ddb8d000c8b3,
        type: 3}
      propertyPath: m_Materials.Array.data[0]
      value: 
      objectReference: {fileID: 2100000, guid: 3208de4cdba56c64ca56d01a9c747298, type: 2}
    - target: {fileID: 919132149155446097, guid: d08f982a09c90f449be1ddb8d000c8b3,
        type: 3}
      propertyPath: m_Name
      value: CuboLava
      objectReference: {fileID: 0}
    - target: {fileID: 919132149155446097, guid: d08f982a09c90f449be1ddb8d000c8b3,
        type: 3}
      propertyPath: m_IsActive
      value: 1
      objectReference: {fileID: 0}
    - target: {fileID: 919132149155446097, guid: d08f982a09c90f449be1ddb8d000c8b3,
        type: 3}
      propertyPath: m_StaticEditorFlags
      value: 4294967295
      objectReference: {fileID: 0}
    m_RemovedComponents: []
  m_SourcePrefab: {fileID: 100100000, guid: d08f982a09c90f449be1ddb8d000c8b3, type: 3}
--- !u!4 &5043969464854529727 stripped
Transform:
  m_CorrespondingSourceObject: {fileID: -8679921383154817045, guid: d08f982a09c90f449be1ddb8d000c8b3,
    type: 3}
  m_PrefabInstance: {fileID: 4788873401390276948}
  m_PrefabAsset: {fileID: 0}
--- !u!1001 &7666642558930429216
PrefabInstance:
  m_ObjectHideFlags: 0
  serializedVersion: 2
  m_Modification:
    m_TransformParent: {fileID: 274761078165227841}
    m_Modifications:
    - target: {fileID: -8679921383154817045, guid: 4ba7473f3234d814a82227c0bf5c9a30,
        type: 3}
      propertyPath: m_RootOrder
      value: 0
      objectReference: {fileID: 0}
    - target: {fileID: -8679921383154817045, guid: 4ba7473f3234d814a82227c0bf5c9a30,
        type: 3}
      propertyPath: m_LocalScale.x
      value: 100
      objectReference: {fileID: 0}
    - target: {fileID: -8679921383154817045, guid: 4ba7473f3234d814a82227c0bf5c9a30,
        type: 3}
      propertyPath: m_LocalScale.y
      value: 100
      objectReference: {fileID: 0}
    - target: {fileID: -8679921383154817045, guid: 4ba7473f3234d814a82227c0bf5c9a30,
        type: 3}
      propertyPath: m_LocalScale.z
      value: 100
      objectReference: {fileID: 0}
    - target: {fileID: -8679921383154817045, guid: 4ba7473f3234d814a82227c0bf5c9a30,
        type: 3}
      propertyPath: m_LocalPosition.x
      value: 0
      objectReference: {fileID: 0}
    - target: {fileID: -8679921383154817045, guid: 4ba7473f3234d814a82227c0bf5c9a30,
        type: 3}
      propertyPath: m_LocalPosition.y
      value: -0.5
      objectReference: {fileID: 0}
    - target: {fileID: -8679921383154817045, guid: 4ba7473f3234d814a82227c0bf5c9a30,
        type: 3}
      propertyPath: m_LocalPosition.z
      value: 0
      objectReference: {fileID: 0}
    - target: {fileID: -8679921383154817045, guid: 4ba7473f3234d814a82227c0bf5c9a30,
        type: 3}
      propertyPath: m_LocalRotation.w
      value: 0.7071068
      objectReference: {fileID: 0}
    - target: {fileID: -8679921383154817045, guid: 4ba7473f3234d814a82227c0bf5c9a30,
        type: 3}
      propertyPath: m_LocalRotation.x
      value: -0.7071068
      objectReference: {fileID: 0}
    - target: {fileID: -8679921383154817045, guid: 4ba7473f3234d814a82227c0bf5c9a30,
        type: 3}
      propertyPath: m_LocalRotation.y
      value: -0
      objectReference: {fileID: 0}
    - target: {fileID: -8679921383154817045, guid: 4ba7473f3234d814a82227c0bf5c9a30,
        type: 3}
      propertyPath: m_LocalRotation.z
      value: -0
      objectReference: {fileID: 0}
    - target: {fileID: -8679921383154817045, guid: 4ba7473f3234d814a82227c0bf5c9a30,
        type: 3}
      propertyPath: m_LocalEulerAnglesHint.x
      value: 0
      objectReference: {fileID: 0}
    - target: {fileID: -8679921383154817045, guid: 4ba7473f3234d814a82227c0bf5c9a30,
        type: 3}
      propertyPath: m_LocalEulerAnglesHint.y
      value: 0
      objectReference: {fileID: 0}
    - target: {fileID: -8679921383154817045, guid: 4ba7473f3234d814a82227c0bf5c9a30,
        type: 3}
      propertyPath: m_LocalEulerAnglesHint.z
      value: 0
      objectReference: {fileID: 0}
    - target: {fileID: 919132149155446097, guid: 4ba7473f3234d814a82227c0bf5c9a30,
        type: 3}
      propertyPath: m_Name
      value: Lava
      objectReference: {fileID: 0}
    - target: {fileID: 919132149155446097, guid: 4ba7473f3234d814a82227c0bf5c9a30,
        type: 3}
      propertyPath: m_IsActive
      value: 0
      objectReference: {fileID: 0}
    - target: {fileID: 919132149155446097, guid: 4ba7473f3234d814a82227c0bf5c9a30,
        type: 3}
      propertyPath: m_StaticEditorFlags
      value: 4294967295
      objectReference: {fileID: 0}
    m_RemovedComponents: []
  m_SourcePrefab: {fileID: 100100000, guid: 4ba7473f3234d814a82227c0bf5c9a30, type: 3}
--- !u!4 &7921791839304008395 stripped
Transform:
  m_CorrespondingSourceObject: {fileID: -8679921383154817045, guid: 4ba7473f3234d814a82227c0bf5c9a30,
    type: 3}
  m_PrefabInstance: {fileID: 7666642558930429216}
  m_PrefabAsset: {fileID: 0}
